<?xml version="1.0" encoding="UTF-8" standalone="no"?>
<!-- Created with Inkscape (http://www.inkscape.org/) -->

<svg
   xmlns:osb="http://www.openswatchbook.org/uri/2009/osb"
   xmlns:dc="http://purl.org/dc/elements/1.1/"
   xmlns:cc="http://creativecommons.org/ns#"
   xmlns:rdf="http://www.w3.org/1999/02/22-rdf-syntax-ns#"
   xmlns:svg="http://www.w3.org/2000/svg"
   xmlns="http://www.w3.org/2000/svg"
   xmlns:sodipodi="http://sodipodi.sourceforge.net/DTD/sodipodi-0.dtd"
   xmlns:inkscape="http://www.inkscape.org/namespaces/inkscape"
   width="210mm"
   height="297mm"
   viewBox="0 0 744.09448819 1052.3622047"
   id="svg2"
   version="1.1"
   inkscape:version="0.91 r13725"
   sodipodi:docname="closing_automated_loop.svg">
  <defs
     id="defs4">
    <marker
       inkscape:stockid="Arrow1Lstart"
       orient="auto"
       refY="0.0"
       refX="0.0"
       id="marker5745"
       style="overflow:visible"
       inkscape:isstock="true">
      <path
         id="path5489"
         d="M 0.0,0.0 L 5.0,-5.0 L -12.5,0.0 L 5.0,5.0 L 0.0,0.0 z "
         style="fill-rule:evenodd;stroke:#000000;stroke-width:1pt;stroke-opacity:1;fill:#000000;fill-opacity:1"
         transform="scale(0.8) translate(12.5,0)" />
    </marker>
    <marker
       inkscape:stockid="Arrow1Lend"
       orient="auto"
       refY="0.0"
       refX="0.0"
       id="marker5283"
       style="overflow:visible;"
       inkscape:isstock="true">
      <path
         id="path5285"
         d="M 0.0,0.0 L 5.0,-5.0 L -12.5,0.0 L 5.0,5.0 L 0.0,0.0 z "
         style="fill-rule:evenodd;stroke:#000000;stroke-width:1pt;stroke-opacity:1;fill:#000000;fill-opacity:1"
         transform="scale(0.8) rotate(180) translate(12.5,0)" />
    </marker>
    <marker
       inkscape:stockid="Arrow1Lend"
       orient="auto"
       refY="0.0"
       refX="0.0"
       id="marker4961"
       style="overflow:visible;"
       inkscape:isstock="true">
      <path
         id="path4963"
         d="M 0.0,0.0 L 5.0,-5.0 L -12.5,0.0 L 5.0,5.0 L 0.0,0.0 z "
         style="fill-rule:evenodd;stroke:#000000;stroke-width:1pt;stroke-opacity:1;fill:#000000;fill-opacity:1"
         transform="scale(0.8) rotate(180) translate(12.5,0)" />
    </marker>
    <marker
       inkscape:stockid="Arrow1Lend"
       orient="auto"
       refY="0.0"
       refX="0.0"
       id="marker4813"
       style="overflow:visible;"
       inkscape:isstock="true">
      <path
         id="path4815"
         d="M 0.0,0.0 L 5.0,-5.0 L -12.5,0.0 L 5.0,5.0 L 0.0,0.0 z "
         style="fill-rule:evenodd;stroke:#000000;stroke-width:1pt;stroke-opacity:1;fill:#000000;fill-opacity:1"
         transform="scale(0.8) rotate(180) translate(12.5,0)" />
    </marker>
    <linearGradient
       id="linearGradient8405"
       osb:paint="solid">
      <stop
         style="stop-color:#000000;stop-opacity:1;"
         offset="0"
         id="stop8407" />
    </linearGradient>
    <linearGradient
       id="linearGradient8387"
       osb:paint="solid">
      <stop
         style="stop-color:#000000;stop-opacity:1;"
         offset="0"
         id="stop8389" />
    </linearGradient>
    <linearGradient
       id="linearGradient8381"
       osb:paint="solid">
      <stop
         style="stop-color:#cccccc;stop-opacity:1;"
         offset="0"
         id="stop8383" />
    </linearGradient>
    <marker
       inkscape:stockid="Arrow1Lend"
       orient="auto"
       refY="0.0"
       refX="0.0"
       id="marker6415"
       style="overflow:visible;"
       inkscape:isstock="true"
       inkscape:collect="always">
      <path
         id="path6417"
         d="M 0.0,0.0 L 5.0,-5.0 L -12.5,0.0 L 5.0,5.0 L 0.0,0.0 z "
         style="fill-rule:evenodd;stroke:#000000;stroke-width:1pt;stroke-opacity:1;fill:#000000;fill-opacity:1"
         transform="scale(0.8) rotate(180) translate(12.5,0)" />
    </marker>
    <marker
       inkscape:isstock="true"
       style="overflow:visible;"
       id="marker6339"
       refX="0.0"
       refY="0.0"
       orient="auto"
       inkscape:stockid="Arrow1Lend"
       inkscape:collect="always">
      <path
         transform="scale(0.8) rotate(180) translate(12.5,0)"
         style="fill-rule:evenodd;stroke:#000000;stroke-width:1pt;stroke-opacity:1;fill:#000000;fill-opacity:1"
         d="M 0.0,0.0 L 5.0,-5.0 L -12.5,0.0 L 5.0,5.0 L 0.0,0.0 z "
         id="path6341" />
    </marker>
    <marker
       inkscape:stockid="Arrow1Lstart"
       orient="auto"
       refY="0.0"
       refX="0.0"
       id="marker5636"
       style="overflow:visible"
       inkscape:isstock="true">
      <path
         id="path5638"
         d="M 0.0,0.0 L 5.0,-5.0 L -12.5,0.0 L 5.0,5.0 L 0.0,0.0 z "
         style="fill-rule:evenodd;stroke:#000000;stroke-width:1pt;stroke-opacity:1;fill:#000000;fill-opacity:1"
         transform="scale(0.8) translate(12.5,0)" />
    </marker>
    <marker
       inkscape:stockid="Arrow2Lstart"
       orient="auto"
       refY="0.0"
       refX="0.0"
       id="marker5560"
       style="overflow:visible"
       inkscape:isstock="true">
      <path
         id="path5562"
         style="fill-rule:evenodd;stroke-width:0.625;stroke-linejoin:round;stroke:#000000;stroke-opacity:1;fill:#000000;fill-opacity:1"
         d="M 8.7185878,4.0337352 L -2.2072895,0.016013256 L 8.7185884,-4.0017078 C 6.9730900,-1.6296469 6.9831476,1.6157441 8.7185878,4.0337352 z "
         transform="scale(1.1) translate(1,0)" />
    </marker>
    <marker
       inkscape:stockid="Arrow2Lend"
       orient="auto"
       refY="0.0"
       refX="0.0"
       id="Arrow2Lend"
       style="overflow:visible;"
       inkscape:isstock="true">
      <path
         id="path4284"
         style="fill-rule:evenodd;stroke-width:0.625;stroke-linejoin:round;stroke:#000000;stroke-opacity:1;fill:#000000;fill-opacity:1"
         d="M 8.7185878,4.0337352 L -2.2072895,0.016013256 L 8.7185884,-4.0017078 C 6.9730900,-1.6296469 6.9831476,1.6157441 8.7185878,4.0337352 z "
         transform="scale(1.1) rotate(180) translate(1,0)" />
    </marker>
    <marker
       inkscape:isstock="true"
       style="overflow:visible;"
       id="marker5476"
       refX="0.0"
       refY="0.0"
       orient="auto"
       inkscape:stockid="Arrow1Lend">
      <path
         transform="scale(0.8) rotate(180) translate(12.5,0)"
         style="fill-rule:evenodd;stroke:#000000;stroke-width:1pt;stroke-opacity:1;fill:#000000;fill-opacity:1"
         d="M 0.0,0.0 L 5.0,-5.0 L -12.5,0.0 L 5.0,5.0 L 0.0,0.0 z "
         id="path5478" />
    </marker>
    <marker
       inkscape:stockid="Arrow1Lstart"
       orient="auto"
       refY="0.0"
       refX="0.0"
       id="Arrow1Lstart"
       style="overflow:visible"
       inkscape:isstock="true">
      <path
         id="path4263"
         d="M 0.0,0.0 L 5.0,-5.0 L -12.5,0.0 L 5.0,5.0 L 0.0,0.0 z "
         style="fill-rule:evenodd;stroke:#000000;stroke-width:1pt;stroke-opacity:1;fill:#000000;fill-opacity:1"
         transform="scale(0.8) translate(12.5,0)" />
    </marker>
    <marker
       inkscape:stockid="Arrow2Lstart"
       orient="auto"
       refY="0.0"
       refX="0.0"
       id="Arrow2Lstart"
       style="overflow:visible"
       inkscape:isstock="true">
      <path
         id="path4281"
         style="fill-rule:evenodd;stroke-width:0.625;stroke-linejoin:round;stroke:#000000;stroke-opacity:1;fill:#000000;fill-opacity:1"
         d="M 8.7185878,4.0337352 L -2.2072895,0.016013256 L 8.7185884,-4.0017078 C 6.9730900,-1.6296469 6.9831476,1.6157441 8.7185878,4.0337352 z "
         transform="scale(1.1) translate(1,0)" />
    </marker>
    <marker
       inkscape:stockid="Arrow1Lend"
       orient="auto"
       refY="0.0"
       refX="0.0"
       id="Arrow1Lend"
       style="overflow:visible;"
       inkscape:isstock="true"
       inkscape:collect="always">
      <path
         id="path4266"
         d="M 0.0,0.0 L 5.0,-5.0 L -12.5,0.0 L 5.0,5.0 L 0.0,0.0 z "
         style="fill-rule:evenodd;stroke:#000000;stroke-width:1pt;stroke-opacity:1;fill:#000000;fill-opacity:1"
         transform="scale(0.8) rotate(180) translate(12.5,0)" />
    </marker>
  </defs>
  <sodipodi:namedview
     id="base"
     pagecolor="#ffffff"
     bordercolor="#666666"
     borderopacity="1.0"
     inkscape:pageopacity="0.0"
     inkscape:pageshadow="2"
     inkscape:zoom="1"
     inkscape:cx="253.92342"
     inkscape:cy="334.20227"
     inkscape:document-units="px"
     inkscape:current-layer="layer1"
     showgrid="false"
     inkscape:window-width="1366"
     inkscape:window-height="744"
     inkscape:window-x="0"
     inkscape:window-y="24"
     inkscape:window-maximized="1"
     inkscape:snap-bbox="true"
     inkscape:snap-global="false"
     showguides="true" />
  <metadata
     id="metadata7">
    <rdf:RDF>
      <cc:Work
         rdf:about="">
        <dc:format>image/svg+xml</dc:format>
        <dc:type
           rdf:resource="http://purl.org/dc/dcmitype/StillImage" />
        <dc:title />
      </cc:Work>
    </rdf:RDF>
  </metadata>
  <g
     inkscape:label="Layer 1"
     inkscape:groupmode="layer"
     id="layer1">
    <rect
       style="fill:#dc0000;fill-opacity:1;stroke:#000000;stroke-opacity:1"
       id="rect3338"
       width="221"
       height="827"
       x="47"
       y="173.36221" />
    <circle
       style="fill:#c8b7b7;stroke:#000000;stroke-opacity:1"
       id="path3340"
       cx="160"
       cy="299.36218"
       r="74" />
    <text
       xml:space="preserve"
       style="font-style:normal;font-weight:normal;font-size:18.75px;line-height:125%;font-family:sans-serif;letter-spacing:0px;word-spacing:0px;fill:#000000;fill-opacity:1;stroke:none;stroke-width:1px;stroke-linecap:butt;stroke-linejoin:miter;stroke-opacity:1"
       x="98"
       y="304.36218"
       id="text3342"
       sodipodi:linespacing="125%"><tspan
         sodipodi:role="line"
         id="tspan3344"
         x="98"
         y="304.36218">Build Images</tspan></text>
    <text
       xml:space="preserve"
       style="font-style:normal;font-weight:normal;font-size:31.25px;line-height:125%;font-family:sans-serif;letter-spacing:0px;word-spacing:0px;fill:#000000;fill-opacity:1;stroke:none;stroke-width:1px;stroke-linecap:butt;stroke-linejoin:miter;stroke-opacity:1"
       x="98"
       y="151.36221"
       id="text4187"
       sodipodi:linespacing="125%"><tspan
         sodipodi:role="line"
         id="tspan4189"
         x="98"
         y="151.36221">Jenkins</tspan></text>
    <rect
       style="fill:#00c800;fill-opacity:1;stroke:#000000;stroke-opacity:1"
       id="rect4946"
       width="252"
       height="215"
       x="468"
       y="184.3622" />
    <text
       xml:space="preserve"
       style="font-style:normal;font-weight:normal;font-size:31.25px;line-height:125%;font-family:sans-serif;letter-spacing:0px;word-spacing:0px;fill:#000000;fill-opacity:1;stroke:none;stroke-width:1px;stroke-linecap:butt;stroke-linejoin:miter;stroke-opacity:1"
       x="552.49554"
       y="168.7529"
       id="text4191-5-9"
       sodipodi:linespacing="125%"><tspan
         sodipodi:role="line"
         id="tspan4193-3-1"
         x="552.49554"
         y="168.7529">LAVA</tspan></text>
    <ellipse
       style="fill:#c8b7b7;stroke:#000000;stroke-opacity:1"
       id="path3340-2"
       cx="594.5"
       cy="293.86221"
       rx="77"
       ry="72" />
    <path
       style="fill:none;fill-rule:evenodd;stroke:#000000;stroke-width:1;stroke-linecap:butt;stroke-linejoin:miter;stroke-miterlimit:4;stroke-dasharray:none;stroke-opacity:1;marker-end:url(#Arrow1Lend)"
       d="m 233.5,298.3622 c 283,0 283,0 283,0"
       id="path4936-7"
       inkscape:connector-curvature="0" />
    <rect
       style="fill:#006ac4;fill-opacity:1;stroke:#000000;stroke-opacity:1"
       id="rect4946-9"
       width="252"
       height="215"
       x="470"
       y="489.86218" />
    <text
       xml:space="preserve"
       style="font-style:normal;font-weight:normal;font-size:31.25px;line-height:125%;font-family:sans-serif;letter-spacing:0px;word-spacing:0px;fill:#000000;fill-opacity:1;stroke:none;stroke-width:1px;stroke-linecap:butt;stroke-linejoin:miter;stroke-opacity:1"
       x="508.54645"
       y="473.01227"
       id="text4195-6-3"
       sodipodi:linespacing="125%"><tspan
         sodipodi:role="line"
         id="tspan4197-2-6"
         x="508.54645"
         y="473.01227">Phabricator</tspan></text>
    <text
       xml:space="preserve"
       style="font-style:normal;font-weight:normal;font-size:18.75px;line-height:125%;font-family:sans-serif;letter-spacing:0px;word-spacing:0px;fill:#000000;fill-opacity:1;stroke:none;stroke-width:1px;stroke-linecap:butt;stroke-linejoin:miter;stroke-opacity:1"
       x="531"
       y="288.36221"
       id="text5087"
       sodipodi:linespacing="125%"><tspan
         sodipodi:role="line"
         id="tspan5089"
         x="531"
         y="288.36221">- Run Tests</tspan><tspan
         sodipodi:role="line"
         x="531"
         y="311.79971"
         id="tspan5091">- Save Results</tspan><tspan
         sodipodi:role="line"
         x="531"
         y="335.23721"
         id="tspan5095" /></text>
    <ellipse
       style="fill:#c8b7b7;stroke:#000000;stroke-opacity:1"
       id="path3340-2-6"
       cx="593"
       cy="594.36218"
       rx="77"
       ry="72" />
    <text
       xml:space="preserve"
       style="font-style:normal;font-weight:normal;font-size:18.75px;line-height:125%;font-family:sans-serif;letter-spacing:0px;word-spacing:0px;fill:#000000;fill-opacity:1;stroke:none;stroke-width:1px;stroke-linecap:butt;stroke-linejoin:miter;stroke-opacity:1"
       x="524"
       y="585.36218"
       id="text5114"
       sodipodi:linespacing="125%"><tspan
         sodipodi:role="line"
         id="tspan5116"
         x="524"
         y="585.36218">- Create Tasks</tspan><tspan
         sodipodi:role="line"
         x="524"
         y="608.79968"
         id="tspan5120">- Update Tasks</tspan><tspan
         sodipodi:role="line"
         x="524"
         y="632.23718"
         id="tspan5122" /></text>
    <circle
       style="fill:#c8b7b7;stroke:#000000;stroke-opacity:1"
       id="path3340-61"
       cx="152"
       cy="870.36218"
       r="74" />
    <circle
       style="fill:#c8b7b7;stroke:#000000;stroke-opacity:1"
       id="path3340-8"
       cx="156"
       cy="492.36218"
       r="74" />
    <text
       xml:space="preserve"
       style="font-style:normal;font-weight:normal;font-size:18.75px;line-height:125%;font-family:sans-serif;letter-spacing:0px;word-spacing:0px;fill:#000000;fill-opacity:1;stroke:none;stroke-width:1px;stroke-linecap:butt;stroke-linejoin:miter;stroke-opacity:1"
       x="90.377075"
       y="484.5278"
       id="text4171-7"
       sodipodi:linespacing="125%"><tspan
         sodipodi:role="line"
         id="tspan4173-9"
         x="90.377075"
         y="484.5278">Test Processor </tspan><tspan
         sodipodi:role="line"
         x="90.377075"
         y="507.9653"
         id="tspan4175-2">and Analyzer</tspan><tspan
         sodipodi:role="line"
         x="90.377075"
         y="531.40283"
         id="tspan4177-0" /></text>
    <circle
       style="fill:#c8b7b7;stroke:#000000;stroke-opacity:1"
       id="path3340-61-7"
       cx="152"
       cy="677.36218"
       r="74" />
    <text
       xml:space="preserve"
       style="font-style:normal;font-weight:normal;font-size:18.75px;line-height:125%;font-family:sans-serif;letter-spacing:0px;word-spacing:0px;fill:#000000;fill-opacity:1;stroke:none;stroke-width:1px;stroke-linecap:butt;stroke-linejoin:miter;stroke-opacity:1"
       x="88.675049"
       y="678.53491"
       id="text4179-2-5"
       sodipodi:linespacing="125%"><tspan
         sodipodi:role="line"
         x="88.675049"
         y="678.53491"
         id="tspan4183-3-9">Task Manager</tspan></text>
    <rect
       style="fill:#008080;fill-opacity:1;stroke:#000000;stroke-opacity:1"
       id="rect4946-9-2"
       width="180"
       height="89"
       x="508"
       y="769.15851" />
    <text
       xml:space="preserve"
       style="font-style:normal;font-weight:normal;font-size:18.75px;line-height:125%;font-family:sans-serif;letter-spacing:0px;word-spacing:0px;fill:#000000;fill-opacity:1;stroke:none;stroke-width:1px;stroke-linecap:butt;stroke-linejoin:miter;stroke-opacity:1"
       x="545"
       y="815.36218"
       id="text5331"
       sodipodi:linespacing="125%"><tspan
         sodipodi:role="line"
         x="545"
         y="815.36218"
         id="tspan5335">Mattermost</tspan></text>
    <text
       xml:space="preserve"
       style="font-style:normal;font-weight:normal;font-size:18.75px;line-height:125%;font-family:sans-serif;letter-spacing:0px;word-spacing:0px;fill:#000000;fill-opacity:1;stroke:none;stroke-width:1px;stroke-linecap:butt;stroke-linejoin:miter;stroke-opacity:1"
       x="118"
       y="874.36218"
       id="text5375"
       sodipodi:linespacing="125%"><tspan
         sodipodi:role="line"
         id="tspan5377"
         x="118"
         y="874.36218">Notifier</tspan></text>
    <path
       style="fill:none;fill-rule:evenodd;stroke:#000000;stroke-width:0.85892576px;stroke-linecap:butt;stroke-linejoin:miter;stroke-opacity:1;marker-end:url(#marker6339)"
       d="M 224.96544,858.46555 C 509.03973,812.25897 509.03973,812.25897 509.03973,812.25897"
       id="path5379"
       inkscape:connector-curvature="0" />
    <path
       style="fill:none;fill-rule:evenodd;stroke:#000000;stroke-width:1.03639174px;stroke-linecap:butt;stroke-linejoin:miter;stroke-opacity:1;marker-end:url(#marker6415)"
       d="m 222.96473,895.43066 c 284.11343,49.04143 284.11343,49.04143 284.11343,49.04143"
       id="path5381"
       inkscape:connector-curvature="0" />
    <text
       xml:space="preserve"
       style="font-style:normal;font-variant:normal;font-weight:bold;font-stretch:normal;font-size:33.75px;line-height:125%;font-family:sans-serif;-inkscape-font-specification:'sans-serif Bold';letter-spacing:0px;word-spacing:0px;fill:#000000;fill-opacity:1;stroke:none;stroke-width:1px;stroke-linecap:butt;stroke-linejoin:miter;stroke-opacity:1"
       x="122"
       y="61.362206"
       id="text6717"
       sodipodi:linespacing="125%"><tspan
         sodipodi:role="line"
         id="tspan6719"
         x="122"
         y="61.362206">Complete CI Loop Workflow</tspan></text>
    <path
       style="fill:none;fill-rule:evenodd;stroke:#000000;stroke-width:1px;stroke-linecap:butt;stroke-linejoin:miter;stroke-opacity:1"
       d="m 155,566.3622 c 0,38 0,38 0,38"
       id="path6721"
       inkscape:connector-curvature="0" />
    <path
       style="fill:none;fill-rule:evenodd;stroke:#000000;stroke-width:0.94868326px;stroke-linecap:butt;stroke-linejoin:miter;stroke-opacity:1"
       d="m 152,751.3622 c 0,45 0,45 0,45"
       id="path6725"
       inkscape:connector-curvature="0" />
    <text
       xml:space="preserve"
       style="font-style:italic;font-weight:normal;font-size:16.25px;line-height:125%;font-family:sans-serif;letter-spacing:0px;word-spacing:0px;fill:#000000;fill-opacity:1;stroke:none;stroke-width:1px;stroke-linecap:butt;stroke-linejoin:miter;stroke-opacity:1;-inkscape-font-specification:'sans-serif Italic';font-stretch:normal;font-variant:normal;"
       x="328"
       y="883.36218"
       id="text6871"
       sodipodi:linespacing="125%"><tspan
         sodipodi:role="line"
         id="tspan6873"
         x="328"
         y="883.36218">Send notifications</tspan></text>
    <text
       xml:space="preserve"
       style="font-style:italic;font-variant:normal;font-weight:normal;font-stretch:normal;font-size:16.25px;line-height:125%;font-family:sans-serif;-inkscape-font-specification:'sans-serif Italic';letter-spacing:0px;word-spacing:0px;fill:#000000;fill-opacity:1;stroke:none;stroke-width:1px;stroke-linecap:butt;stroke-linejoin:miter;stroke-opacity:1"
       x="141.00642"
       y="694.82672"
       id="text6875"
       sodipodi:linespacing="125%"
       transform="matrix(0.96544419,-0.26060988,0.26060988,0.96544419,0,0)"><tspan
         sodipodi:role="line"
         id="tspan6877"
         x="141.00642"
         y="694.82672">Manage Tasks</tspan></text>
    <text
       xml:space="preserve"
       style="font-style:italic;font-weight:normal;font-size:16.25px;line-height:125%;font-family:sans-serif;letter-spacing:0px;word-spacing:0px;fill:#000000;fill-opacity:1;stroke:none;stroke-width:1px;stroke-linecap:butt;stroke-linejoin:miter;stroke-opacity:1;-inkscape-font-specification:'sans-serif Italic';font-stretch:normal;font-variant:normal;"
       x="283"
       y="265.36221"
       id="text6879"
       sodipodi:linespacing="125%"><tspan
         sodipodi:role="line"
         id="tspan6881"
         x="283"
         y="265.36221">Trigger Automated </tspan><tspan
         sodipodi:role="line"
         x="283"
         y="288.79971"
         id="tspan6883">Tests</tspan></text>
    <text
       xml:space="preserve"
       style="font-style:italic;font-variant:normal;font-weight:normal;font-stretch:normal;font-size:16.19524193px;line-height:125%;font-family:sans-serif;-inkscape-font-specification:'sans-serif Italic';letter-spacing:0px;word-spacing:0px;fill:#000000;fill-opacity:1;stroke:none;stroke-width:1px;stroke-linecap:butt;stroke-linejoin:miter;stroke-opacity:1"
       x="84.120956"
       y="514.09399"
       id="text6885"
       sodipodi:linespacing="125%"
       transform="matrix(0.91078785,-0.40554482,0.43281878,0.90523011,0,0)"><tspan
         sodipodi:role="line"
         id="tspan6887"
         x="84.120956"
         y="514.09399">Send Tests Results</tspan></text>
    <rect
       style="fill:#9c6aa7;fill-opacity:1;stroke:#000000;stroke-opacity:1"
       id="rect4946-9-2-2"
       width="180"
       height="89"
       x="510"
       y="903.86218" />
    <text
       xml:space="preserve"
       style="font-style:normal;font-weight:normal;font-size:18.75px;line-height:125%;font-family:sans-serif;letter-spacing:0px;word-spacing:0px;fill:#000000;fill-opacity:1;stroke:none;stroke-width:1px;stroke-linecap:butt;stroke-linejoin:miter;stroke-opacity:1"
       x="572"
       y="952.06592"
       id="text5331-0"
       sodipodi:linespacing="125%"><tspan
         sodipodi:role="line"
         x="572"
         y="952.06592"
         id="tspan5335-6">Email</tspan></text>
    <path
       style="fill:none;fill-rule:evenodd;stroke:#000000;stroke-width:1px;stroke-linecap:butt;stroke-linejoin:miter;stroke-opacity:1;marker-start:url(#marker5636)"
       d="m 230,480.3622 c 304,-143 304,-143 304,-143"
       id="path5055"
       inkscape:connector-curvature="0" />
    <path
       style="fill:none;fill-rule:evenodd;stroke:#000000;stroke-width:1.01913142px;stroke-linecap:butt;stroke-linejoin:miter;stroke-opacity:1;marker-end:url(#marker5283)"
       d="M 225.01498,674.35883 C 514.98483,594.37607 514.98483,594.37607 514.98483,594.37607"
       id="path6984"
       inkscape:connector-curvature="0" />
  </g>
</svg>
