<?xml version="1.0" encoding="UTF-8" standalone="no"?>
<!-- Created with Inkscape (http://www.inkscape.org/) -->

<svg
   xmlns:osb="http://www.openswatchbook.org/uri/2009/osb"
   xmlns:dc="http://purl.org/dc/elements/1.1/"
   xmlns:cc="http://creativecommons.org/ns#"
   xmlns:rdf="http://www.w3.org/1999/02/22-rdf-syntax-ns#"
   xmlns:svg="http://www.w3.org/2000/svg"
   xmlns="http://www.w3.org/2000/svg"
   xmlns:sodipodi="http://sodipodi.sourceforge.net/DTD/sodipodi-0.dtd"
   xmlns:inkscape="http://www.inkscape.org/namespaces/inkscape"
   width="210mm"
   height="297mm"
   viewBox="0 0 744.09448819 1052.3622047"
   id="svg2"
   version="1.1"
   inkscape:version="0.91 r13725"
   sodipodi:docname="new_infra_ci_loop.svg">
  <defs
     id="defs4">
    <marker
       inkscape:stockid="Arrow1Lend"
       orient="auto"
       refY="0.0"
       refX="0.0"
       id="marker10491"
       style="overflow:visible;"
       inkscape:isstock="true">
      <path
         id="path10493"
         d="M 0.0,0.0 L 5.0,-5.0 L -12.5,0.0 L 5.0,5.0 L 0.0,0.0 z "
         style="fill-rule:evenodd;stroke:#000000;stroke-width:1pt;stroke-opacity:1;fill:#000000;fill-opacity:1"
         transform="scale(0.8) rotate(180) translate(12.5,0)" />
    </marker>
    <marker
       inkscape:isstock="true"
       style="overflow:visible;"
       id="marker10361"
       refX="0.0"
       refY="0.0"
       orient="auto"
       inkscape:stockid="Arrow1Lend"
       inkscape:collect="always">
      <path
         transform="scale(0.8) rotate(180) translate(12.5,0)"
         style="fill-rule:evenodd;stroke:#000000;stroke-width:1pt;stroke-opacity:1;fill:#000000;fill-opacity:1"
         d="M 0.0,0.0 L 5.0,-5.0 L -12.5,0.0 L 5.0,5.0 L 0.0,0.0 z "
         id="path10363" />
    </marker>
    <marker
       inkscape:stockid="Arrow1Lend"
       orient="auto"
       refY="0.0"
       refX="0.0"
       id="marker10237"
       style="overflow:visible;"
       inkscape:isstock="true"
       inkscape:collect="always">
      <path
         id="path10239"
         d="M 0.0,0.0 L 5.0,-5.0 L -12.5,0.0 L 5.0,5.0 L 0.0,0.0 z "
         style="fill-rule:evenodd;stroke:#000000;stroke-width:1pt;stroke-opacity:1;fill:#000000;fill-opacity:1"
         transform="scale(0.8) rotate(180) translate(12.5,0)" />
    </marker>
    <marker
       inkscape:isstock="true"
       style="overflow:visible;"
       id="marker10119"
       refX="0.0"
       refY="0.0"
       orient="auto"
       inkscape:stockid="Arrow1Lend"
       inkscape:collect="always">
      <path
         transform="scale(0.8) rotate(180) translate(12.5,0)"
         style="fill-rule:evenodd;stroke:#000000;stroke-width:1pt;stroke-opacity:1;fill:#000000;fill-opacity:1"
         d="M 0.0,0.0 L 5.0,-5.0 L -12.5,0.0 L 5.0,5.0 L 0.0,0.0 z "
         id="path10121" />
    </marker>
    <marker
       inkscape:stockid="Arrow1Lend"
       orient="auto"
       refY="0.0"
       refX="0.0"
       id="marker10007"
       style="overflow:visible;"
       inkscape:isstock="true"
       inkscape:collect="always">
      <path
         id="path10009"
         d="M 0.0,0.0 L 5.0,-5.0 L -12.5,0.0 L 5.0,5.0 L 0.0,0.0 z "
         style="fill-rule:evenodd;stroke:#000000;stroke-width:1pt;stroke-opacity:1;fill:#000000;fill-opacity:1"
         transform="scale(0.8) rotate(180) translate(12.5,0)" />
    </marker>
    <marker
       inkscape:isstock="true"
       style="overflow:visible;"
       id="marker9901"
       refX="0.0"
       refY="0.0"
       orient="auto"
       inkscape:stockid="Arrow1Lend"
       inkscape:collect="always">
      <path
         transform="scale(0.8) rotate(180) translate(12.5,0)"
         style="fill-rule:evenodd;stroke:#000000;stroke-width:1pt;stroke-opacity:1;fill:#000000;fill-opacity:1"
         d="M 0.0,0.0 L 5.0,-5.0 L -12.5,0.0 L 5.0,5.0 L 0.0,0.0 z "
         id="path9903" />
    </marker>
    <marker
       inkscape:stockid="Arrow1Lend"
       orient="auto"
       refY="0.0"
       refX="0.0"
       id="marker9801"
       style="overflow:visible;"
       inkscape:isstock="true"
       inkscape:collect="always">
      <path
         id="path9803"
         d="M 0.0,0.0 L 5.0,-5.0 L -12.5,0.0 L 5.0,5.0 L 0.0,0.0 z "
         style="fill-rule:evenodd;stroke:#000000;stroke-width:1pt;stroke-opacity:1;fill:#000000;fill-opacity:1"
         transform="scale(0.8) rotate(180) translate(12.5,0)" />
    </marker>
    <marker
       inkscape:isstock="true"
       style="overflow:visible;"
       id="marker9707"
       refX="0.0"
       refY="0.0"
       orient="auto"
       inkscape:stockid="Arrow1Lend"
       inkscape:collect="always">
      <path
         transform="scale(0.8) rotate(180) translate(12.5,0)"
         style="fill-rule:evenodd;stroke:#000000;stroke-width:1pt;stroke-opacity:1;fill:#000000;fill-opacity:1"
         d="M 0.0,0.0 L 5.0,-5.0 L -12.5,0.0 L 5.0,5.0 L 0.0,0.0 z "
         id="path9709" />
    </marker>
    <marker
       inkscape:stockid="Arrow1Lend"
       orient="auto"
       refY="0.0"
       refX="0.0"
       id="Arrow1Lend"
       style="overflow:visible;"
       inkscape:isstock="true"
       inkscape:collect="always">
      <path
         id="path9022"
         d="M 0.0,0.0 L 5.0,-5.0 L -12.5,0.0 L 5.0,5.0 L 0.0,0.0 z "
         style="fill-rule:evenodd;stroke:#000000;stroke-width:1pt;stroke-opacity:1;fill:#000000;fill-opacity:1"
         transform="scale(0.8) rotate(180) translate(12.5,0)" />
    </marker>
    <linearGradient
       id="linearGradient7233"
       osb:paint="solid">
      <stop
         style="stop-color:#ffcc00;stop-opacity:1;"
         offset="0"
         id="stop7235" />
    </linearGradient>
    <marker
       inkscape:stockid="Arrow1Lstart"
       orient="auto"
       refY="0.0"
       refX="0.0"
       id="marker5745"
       style="overflow:visible"
       inkscape:isstock="true">
      <path
         id="path5489"
         d="M 0.0,0.0 L 5.0,-5.0 L -12.5,0.0 L 5.0,5.0 L 0.0,0.0 z "
         style="fill-rule:evenodd;stroke:#000000;stroke-width:1pt;stroke-opacity:1;fill:#000000;fill-opacity:1"
         transform="scale(0.8) translate(12.5,0)" />
    </marker>
    <marker
       inkscape:stockid="Arrow1Lend"
       orient="auto"
       refY="0.0"
       refX="0.0"
       id="marker5283"
       style="overflow:visible;"
       inkscape:isstock="true">
      <path
         id="path5285"
         d="M 0.0,0.0 L 5.0,-5.0 L -12.5,0.0 L 5.0,5.0 L 0.0,0.0 z "
         style="fill-rule:evenodd;stroke:#000000;stroke-width:1pt;stroke-opacity:1;fill:#000000;fill-opacity:1"
         transform="scale(0.8) rotate(180) translate(12.5,0)" />
    </marker>
    <marker
       inkscape:stockid="Arrow1Lend"
       orient="auto"
       refY="0.0"
       refX="0.0"
       id="marker4961"
       style="overflow:visible;"
       inkscape:isstock="true">
      <path
         id="path4963"
         d="M 0.0,0.0 L 5.0,-5.0 L -12.5,0.0 L 5.0,5.0 L 0.0,0.0 z "
         style="fill-rule:evenodd;stroke:#000000;stroke-width:1pt;stroke-opacity:1;fill:#000000;fill-opacity:1"
         transform="scale(0.8) rotate(180) translate(12.5,0)" />
    </marker>
    <marker
       inkscape:stockid="Arrow1Lend"
       orient="auto"
       refY="0.0"
       refX="0.0"
       id="marker4813"
       style="overflow:visible;"
       inkscape:isstock="true">
      <path
         id="path4815"
         d="M 0.0,0.0 L 5.0,-5.0 L -12.5,0.0 L 5.0,5.0 L 0.0,0.0 z "
         style="fill-rule:evenodd;stroke:#000000;stroke-width:1pt;stroke-opacity:1;fill:#000000;fill-opacity:1"
         transform="scale(0.8) rotate(180) translate(12.5,0)" />
    </marker>
    <linearGradient
       id="linearGradient8405"
       osb:paint="solid">
      <stop
         style="stop-color:#000000;stop-opacity:1;"
         offset="0"
         id="stop8407" />
    </linearGradient>
    <linearGradient
       id="linearGradient8387"
       osb:paint="solid">
      <stop
         style="stop-color:#000000;stop-opacity:1;"
         offset="0"
         id="stop8389" />
    </linearGradient>
    <linearGradient
       id="linearGradient8381"
       osb:paint="solid">
      <stop
         style="stop-color:#cccccc;stop-opacity:1;"
         offset="0"
         id="stop8383" />
    </linearGradient>
    <marker
       inkscape:stockid="Arrow1Lstart"
       orient="auto"
       refY="0.0"
       refX="0.0"
       id="marker5636"
       style="overflow:visible"
       inkscape:isstock="true">
      <path
         id="path5638"
         d="M 0.0,0.0 L 5.0,-5.0 L -12.5,0.0 L 5.0,5.0 L 0.0,0.0 z "
         style="fill-rule:evenodd;stroke:#000000;stroke-width:1pt;stroke-opacity:1;fill:#000000;fill-opacity:1"
         transform="scale(0.8) translate(12.5,0)" />
    </marker>
    <marker
       inkscape:stockid="Arrow2Lstart"
       orient="auto"
       refY="0.0"
       refX="0.0"
       id="marker5560"
       style="overflow:visible"
       inkscape:isstock="true">
      <path
         id="path5562"
         style="fill-rule:evenodd;stroke-width:0.625;stroke-linejoin:round;stroke:#000000;stroke-opacity:1;fill:#000000;fill-opacity:1"
         d="M 8.7185878,4.0337352 L -2.2072895,0.016013256 L 8.7185884,-4.0017078 C 6.9730900,-1.6296469 6.9831476,1.6157441 8.7185878,4.0337352 z "
         transform="scale(1.1) translate(1,0)" />
    </marker>
    <marker
       inkscape:stockid="Arrow2Lend"
       orient="auto"
       refY="0.0"
       refX="0.0"
       id="Arrow2Lend"
       style="overflow:visible;"
       inkscape:isstock="true">
      <path
         id="path4284"
         style="fill-rule:evenodd;stroke-width:0.625;stroke-linejoin:round;stroke:#000000;stroke-opacity:1;fill:#000000;fill-opacity:1"
         d="M 8.7185878,4.0337352 L -2.2072895,0.016013256 L 8.7185884,-4.0017078 C 6.9730900,-1.6296469 6.9831476,1.6157441 8.7185878,4.0337352 z "
         transform="scale(1.1) rotate(180) translate(1,0)" />
    </marker>
    <marker
       inkscape:isstock="true"
       style="overflow:visible;"
       id="marker5476"
       refX="0.0"
       refY="0.0"
       orient="auto"
       inkscape:stockid="Arrow1Lend">
      <path
         transform="scale(0.8) rotate(180) translate(12.5,0)"
         style="fill-rule:evenodd;stroke:#000000;stroke-width:1pt;stroke-opacity:1;fill:#000000;fill-opacity:1"
         d="M 0.0,0.0 L 5.0,-5.0 L -12.5,0.0 L 5.0,5.0 L 0.0,0.0 z "
         id="path5478" />
    </marker>
    <marker
       inkscape:stockid="Arrow1Lstart"
       orient="auto"
       refY="0.0"
       refX="0.0"
       id="Arrow1Lstart"
       style="overflow:visible"
       inkscape:isstock="true">
      <path
         id="path4263"
         d="M 0.0,0.0 L 5.0,-5.0 L -12.5,0.0 L 5.0,5.0 L 0.0,0.0 z "
         style="fill-rule:evenodd;stroke:#000000;stroke-width:1pt;stroke-opacity:1;fill:#000000;fill-opacity:1"
         transform="scale(0.8) translate(12.5,0)" />
    </marker>
    <marker
       inkscape:stockid="Arrow2Lstart"
       orient="auto"
       refY="0.0"
       refX="0.0"
       id="Arrow2Lstart"
       style="overflow:visible"
       inkscape:isstock="true">
      <path
         id="path4281"
         style="fill-rule:evenodd;stroke-width:0.625;stroke-linejoin:round;stroke:#000000;stroke-opacity:1;fill:#000000;fill-opacity:1"
         d="M 8.7185878,4.0337352 L -2.2072895,0.016013256 L 8.7185884,-4.0017078 C 6.9730900,-1.6296469 6.9831476,1.6157441 8.7185878,4.0337352 z "
         transform="scale(1.1) translate(1,0)" />
    </marker>
  </defs>
  <sodipodi:namedview
     id="base"
     pagecolor="#ffffff"
     bordercolor="#666666"
     borderopacity="1.0"
     inkscape:pageopacity="0.0"
     inkscape:pageshadow="2"
     inkscape:zoom="1"
     inkscape:cx="335.11417"
     inkscape:cy="497.06333"
     inkscape:document-units="px"
     inkscape:current-layer="layer1"
     showgrid="false"
     inkscape:window-width="1366"
     inkscape:window-height="744"
     inkscape:window-x="0"
     inkscape:window-y="24"
     inkscape:window-maximized="1"
     inkscape:snap-bbox="true"
     inkscape:snap-global="false"
     showguides="true" />
  <metadata
     id="metadata7">
    <rdf:RDF>
      <cc:Work
         rdf:about="">
        <dc:format>image/svg+xml</dc:format>
        <dc:type
           rdf:resource="http://purl.org/dc/dcmitype/StillImage" />
        <dc:title></dc:title>
      </cc:Work>
    </rdf:RDF>
  </metadata>
  <g
     inkscape:label="Layer 1"
     inkscape:groupmode="layer"
     id="layer1">
    <text
       xml:space="preserve"
       style="font-style:normal;font-variant:normal;font-weight:bold;font-stretch:normal;font-size:33.75px;line-height:125%;font-family:sans-serif;-inkscape-font-specification:'sans-serif Bold';letter-spacing:0px;word-spacing:0px;fill:#000000;fill-opacity:1;stroke:none;stroke-width:1px;stroke-linecap:butt;stroke-linejoin:miter;stroke-opacity:1"
       x="23"
       y="61.362206"
       id="text6717"
       sodipodi:linespacing="125%"><tspan
         sodipodi:role="line"
         id="tspan6719"
         x="23"
         y="61.362206">New Infrastructure CI Loop Workflow</tspan></text>
    <rect
       y="550.26379"
       x="73.901558"
       height="359.19693"
       width="328.1969"
       id="rect3422"
       style="fill:#00b8ff;fill-opacity:1;stroke:#000000;stroke-width:0.80312771;stroke-opacity:1" />
    <ellipse
       cy="619.00061"
       cx="150.49765"
       id="circle3426"
       style="fill:#c8b7b7;stroke:#000000;stroke-width:0.74144846;stroke-opacity:1"
       rx="55.625797"
       ry="54.118916" />
    <text
       sodipodi:linespacing="125%"
       id="text3428"
       y="623.72327"
       x="111.62586"
       style="font-style:normal;font-weight:normal;font-size:13.90215778px;line-height:125%;font-family:sans-serif;letter-spacing:0px;word-spacing:0px;fill:#000000;fill-opacity:1;stroke:none;stroke-width:1px;stroke-linecap:butt;stroke-linejoin:miter;stroke-opacity:1"
       xml:space="preserve"
       transform="scale(1.0138264,0.98636217)"><tspan
         id="tspan3432"
         y="623.72327"
         x="111.62586"
         sodipodi:role="line">HTTP URL </tspan><tspan
         y="641.10095"
         x="111.62586"
         sodipodi:role="line"
         id="tspan7115">service</tspan><tspan
         id="tspan3434"
         y="658.47864"
         x="111.62586"
         sodipodi:role="line" /></text>
    <text
       sodipodi:linespacing="125%"
       id="text3450"
       y="511.36218"
       x="157"
       style="font-style:normal;font-weight:normal;font-size:21.25px;line-height:125%;font-family:sans-serif;letter-spacing:0px;word-spacing:0px;fill:#000000;fill-opacity:1;stroke:none;stroke-width:1px;stroke-linecap:butt;stroke-linejoin:miter;stroke-opacity:1"
       xml:space="preserve"><tspan
         y="511.36218"
         x="157"
         sodipodi:role="line"
         id="tspan3454">Tests Processor</tspan><tspan
         y="537.92468"
         x="157"
         sodipodi:role="line"
         id="tspan10652">System</tspan></text>
    <rect
       transform="matrix(0,1,-1,0,0,0)"
       y="-198.99292"
       x="117.20057"
       height="147.6721"
       width="132.84111"
       id="rect6651"
       style="fill:#dc0000;fill-opacity:1;stroke:#000000;stroke-width:0.32761717;stroke-opacity:1" />
    <ellipse
       ry="52.216412"
       rx="51.624638"
       cy="180.99277"
       cx="125.15685"
       id="ellipse6653"
       style="fill:#c8b7b7;stroke:#000000;stroke-width:0.7016173;stroke-opacity:1" />
    <text
       transform="scale(0.9696855,1.0312622)"
       sodipodi:linespacing="125%"
       id="text6655"
       y="180.2952"
       x="83.875397"
       style="font-style:normal;font-weight:normal;font-size:13.95555782px;line-height:125%;font-family:sans-serif;letter-spacing:0px;word-spacing:0px;fill:#000000;fill-opacity:1;stroke:none;stroke-width:1px;stroke-linecap:butt;stroke-linejoin:miter;stroke-opacity:1"
       xml:space="preserve"><tspan
         y="180.2952"
         x="83.875397"
         id="tspan6657"
         sodipodi:role="line">Build Images</tspan></text>
    <text
       sodipodi:linespacing="125%"
       id="text6659"
       y="102.98937"
       x="89.231392"
       style="font-style:normal;font-weight:normal;font-size:21.25px;line-height:125%;font-family:sans-serif;letter-spacing:0px;word-spacing:0px;fill:#000000;fill-opacity:1;stroke:none;stroke-width:1px;stroke-linecap:butt;stroke-linejoin:miter;stroke-opacity:1"
       xml:space="preserve"
       transform="scale(1.0027653,0.99724233)"><tspan
         y="102.98937"
         x="89.231392"
         id="tspan6661"
         sodipodi:role="line">Jenkins</tspan></text>
    <rect
       style="fill:#00af00;fill-opacity:1;stroke:#000000;stroke-width:0.37291652;stroke-opacity:1"
       id="rect6663"
       width="151.62708"
       height="167.62708"
       x="318.39185"
       y="-205.9704"
       transform="matrix(0,1,-1,0,0,0)" />
    <ellipse
       style="fill:#c8b7b7;stroke:#000000;stroke-width:0.79862934;stroke-opacity:1"
       id="ellipse6665"
       cx="122.15685"
       cy="391.20535"
       rx="58.600685"
       ry="59.600685" />
    <text
       xml:space="preserve"
       style="font-style:normal;font-weight:normal;font-size:15.88518047px;line-height:125%;font-family:sans-serif;letter-spacing:0px;word-spacing:0px;fill:#000000;fill-opacity:1;stroke:none;stroke-width:1px;stroke-linecap:butt;stroke-linejoin:miter;stroke-opacity:1"
       x="71.778671"
       y="383.75134"
       id="text6667"
       sodipodi:linespacing="125%"
       transform="scale(0.96701147,1.0341139)"><tspan
         sodipodi:role="line"
         id="tspan6669"
         x="71.778671"
         y="383.75134">Execute Tests</tspan></text>
    <text
       xml:space="preserve"
       style="font-style:normal;font-weight:normal;font-size:21.25px;line-height:125%;font-family:sans-serif;letter-spacing:0px;word-spacing:0px;fill:#000000;fill-opacity:1;stroke:none;stroke-width:1px;stroke-linecap:butt;stroke-linejoin:miter;stroke-opacity:1"
       x="31.656853"
       y="295.70538"
       id="text6671"
       sodipodi:linespacing="125%"><tspan
         sodipodi:role="line"
         id="tspan6673"
         x="31.656853"
         y="295.70538">LAVA</tspan></text>
    <rect
       transform="matrix(0,1,-1,0,0,0)"
       y="-428.91632"
       x="326.92313"
       height="166.45"
       width="145.78683"
       id="rect6675"
       style="fill:#c83737;fill-opacity:1;stroke:#000000;stroke-width:0.36437806;stroke-opacity:1" />
    <ellipse
       ry="57.305038"
       rx="58.18919"
       cy="396.93207"
       cx="345.69135"
       id="ellipse6677"
       style="fill:#c8b7b7;stroke:#000000;stroke-width:0.78034359;stroke-opacity:1" />
    <text
       transform="scale(0.98272197,1.0175818)"
       sodipodi:linespacing="125%"
       id="text6679"
       y="385.95163"
       x="323.73373"
       style="font-style:normal;font-weight:normal;font-size:15.52146626px;line-height:125%;font-family:sans-serif;letter-spacing:0px;word-spacing:0px;fill:#000000;fill-opacity:1;stroke:none;stroke-width:1px;stroke-linecap:butt;stroke-linejoin:miter;stroke-opacity:1"
       xml:space="preserve"><tspan
         y="385.95163"
         x="323.73373"
         id="tspan6681"
         sodipodi:role="line">Collect</tspan><tspan
         y="405.35345"
         x="323.73373"
         sodipodi:role="line"
         id="tspan7133">Results</tspan></text>
    <text
       sodipodi:linespacing="125%"
       id="text6683"
       y="250.85112"
       x="222.29269"
       style="font-style:normal;font-weight:normal;font-size:20.76345062px;line-height:125%;font-family:sans-serif;letter-spacing:0px;word-spacing:0px;fill:#000000;fill-opacity:1;stroke:none;stroke-width:1px;stroke-linecap:butt;stroke-linejoin:miter;stroke-opacity:1"
       xml:space="preserve"
       transform="scale(1.0162464,0.98401332)"><tspan
         y="250.85112"
         x="222.29269"
         sodipodi:role="line"
         id="tspan9643">Test</tspan><tspan
         y="276.80545"
         x="222.29269"
         sodipodi:role="line"
         id="tspan9647">Submitter</tspan><tspan
         y="302.75977"
         x="222.29269"
         sodipodi:role="line"
         id="tspan9675">App </tspan></text>
    <ellipse
       style="fill:#ffd5d5;fill-opacity:1;stroke:#000000;stroke-width:0.1;stroke-linejoin:miter;stroke-miterlimit:4;stroke-dasharray:none;stroke-opacity:1"
       id="path6691"
       cx="345.33347"
       cy="143.5338"
       rx="103.5"
       ry="56" />
    <text
       xml:space="preserve"
       style="font-style:normal;font-weight:normal;font-size:18.75px;line-height:125%;font-family:sans-serif;letter-spacing:0px;word-spacing:0px;fill:#000000;fill-opacity:1;stroke:none;stroke-width:1px;stroke-linecap:butt;stroke-linejoin:miter;stroke-opacity:1"
       x="317.83347"
       y="148.5338"
       id="text6693"
       sodipodi:linespacing="125%"><tspan
         sodipodi:role="line"
         id="tspan6695"
         x="317.83347"
         y="148.5338">Tester</tspan></text>
    <ellipse
       style="fill:#c8b7b7;stroke:#000000;stroke-width:0.74144846;stroke-opacity:1"
       id="circle7093"
       cx="239.49991"
       cy="737.5368"
       rx="55.625797"
       ry="54.118916" />
    <text
       xml:space="preserve"
       style="font-style:normal;font-weight:normal;font-size:13.90215778px;line-height:125%;font-family:sans-serif;letter-spacing:0px;word-spacing:0px;fill:#000000;fill-opacity:1;stroke:none;stroke-width:1px;stroke-linecap:butt;stroke-linejoin:miter;stroke-opacity:1"
       x="187.57765"
       y="741.9256"
       id="text7095"
       sodipodi:linespacing="125%"
       transform="scale(1.0138264,0.98636217)"><tspan
         sodipodi:role="line"
         id="tspan7097"
         x="187.57765"
         y="741.9256">Test Processor </tspan><tspan
         sodipodi:role="line"
         x="187.57765"
         y="759.30328"
         id="tspan7099">and Analyzer</tspan><tspan
         sodipodi:role="line"
         x="187.57765"
         y="776.68097"
         id="tspan7101" /></text>
    <circle
       r="55.624161"
       cy="840.86218"
       cx="332.5"
       id="circle7103"
       style="fill:#c8b7b7;stroke:#000000;stroke-width:0.75167787;stroke-opacity:1" />
    <text
       sodipodi:linespacing="125%"
       id="text7105"
       y="832.97327"
       x="291.17273"
       style="font-style:normal;font-weight:normal;font-size:14.09395981px;line-height:125%;font-family:sans-serif;letter-spacing:0px;word-spacing:0px;fill:#000000;fill-opacity:1;stroke:none;stroke-width:1px;stroke-linecap:butt;stroke-linejoin:miter;stroke-opacity:1"
       xml:space="preserve"><tspan
         id="tspan7109"
         y="832.97327"
         x="291.17273"
         sodipodi:role="line">Notification</tspan><tspan
         y="850.5907"
         x="291.17273"
         sodipodi:role="line"
         id="tspan7151">System</tspan><tspan
         id="tspan7111"
         y="868.20819"
         x="291.17273"
         sodipodi:role="line" /></text>
    <ellipse
       style="fill:#c8b7b7;stroke:#000000;stroke-width:0.74144846;stroke-opacity:1"
       id="circle7117"
       cx="326.50195"
       cy="623.05475"
       rx="55.625797"
       ry="54.118916" />
    <text
       xml:space="preserve"
       style="font-style:normal;font-weight:normal;font-size:13.90215778px;line-height:125%;font-family:sans-serif;letter-spacing:0px;word-spacing:0px;fill:#000000;fill-opacity:1;stroke:none;stroke-width:1px;stroke-linecap:butt;stroke-linejoin:miter;stroke-opacity:1"
       x="293.12097"
       y="618.95587"
       id="text7119"
       sodipodi:linespacing="125%"
       transform="scale(1.0138264,0.98636217)"><tspan
         id="tspan7123"
         sodipodi:role="line"
         x="293.12097"
         y="618.95587">Reliable</tspan><tspan
         sodipodi:role="line"
         x="293.12097"
         y="636.33356"
         id="tspan7129">Network</tspan><tspan
         sodipodi:role="line"
         x="293.12097"
         y="653.71124"
         id="tspan7131">Protocol</tspan><tspan
         sodipodi:role="line"
         x="293.12097"
         y="671.08899"
         id="tspan7125" /></text>
    <circle
       style="fill:#c8b7b7;stroke:#000000;stroke-width:0.75167787;stroke-opacity:1"
       id="circle7137"
       cx="153.5"
       cy="845.86218"
       r="55.624161" />
    <text
       xml:space="preserve"
       style="font-style:normal;font-weight:normal;font-size:14.09395981px;line-height:125%;font-family:sans-serif;letter-spacing:0px;word-spacing:0px;fill:#000000;fill-opacity:1;stroke:none;stroke-width:1px;stroke-linecap:butt;stroke-linejoin:miter;stroke-opacity:1"
       x="105.17273"
       y="848.97327"
       id="text7139"
       sodipodi:linespacing="125%"><tspan
         sodipodi:role="line"
         x="105.17273"
         y="848.97327"
         id="tspan7143">Task Manager</tspan><tspan
         sodipodi:role="line"
         x="105.17273"
         y="866.5907"
         id="tspan7145" /></text>
    <rect
       y="953.76801"
       x="398.90582"
       height="73.188377"
       width="144.18837"
       id="rect7171"
       style="fill:#9cb2a7;fill-opacity:1;stroke:#000000;stroke-width:0.81162411;stroke-opacity:1" />
    <text
       sodipodi:linespacing="125%"
       id="text7173"
       y="980.4613"
       x="438.28268"
       style="font-style:normal;font-weight:normal;font-size:15.21795177px;line-height:125%;font-family:sans-serif;letter-spacing:0px;word-spacing:0px;fill:#000000;fill-opacity:1;stroke:none;stroke-width:1px;stroke-linecap:butt;stroke-linejoin:miter;stroke-opacity:1"
       xml:space="preserve"
       transform="scale(0.9869674,1.0132047)"><tspan
         id="tspan7175"
         y="980.4613"
         x="438.28268"
         sodipodi:role="line">Mattermost</tspan></text>
    <rect
       style="fill:#9c6aa7;fill-opacity:1;stroke:#000000;stroke-width:0.81162411;stroke-opacity:1"
       id="rect7177"
       width="144.18837"
       height="73.188377"
       x="215.90582"
       y="953.76801" />
    <text
       transform="scale(0.9869674,1.0132047)"
       xml:space="preserve"
       style="font-style:normal;font-weight:normal;font-size:15.21795177px;line-height:125%;font-family:sans-serif;letter-spacing:0px;word-spacing:0px;fill:#000000;fill-opacity:1;stroke:none;stroke-width:1px;stroke-linecap:butt;stroke-linejoin:miter;stroke-opacity:1"
       x="269.07748"
       y="980.46124"
       id="text7179"
       sodipodi:linespacing="125%"><tspan
         sodipodi:role="line"
         x="269.07748"
         y="980.46124"
         id="tspan7181">Email</tspan></text>
    <rect
       y="951.76801"
       x="20.905823"
       height="73.188377"
       width="144.18837"
       id="rect7183"
       style="fill:#3280bf;fill-opacity:1;stroke:#000000;stroke-width:0.81162411;stroke-opacity:1" />
    <text
       sodipodi:linespacing="125%"
       id="text7185"
       y="979.47424"
       x="51.238468"
       style="font-style:normal;font-weight:normal;font-size:15.21795177px;line-height:125%;font-family:sans-serif;letter-spacing:0px;word-spacing:0px;fill:#000000;fill-opacity:1;stroke:none;stroke-width:1px;stroke-linecap:butt;stroke-linejoin:miter;stroke-opacity:1"
       xml:space="preserve"
       transform="scale(0.9869674,1.0132047)"><tspan
         id="tspan7187"
         y="979.47424"
         x="51.238468"
         sodipodi:role="line">Phabricator</tspan></text>
    <rect
       style="fill:#ffff00;fill-opacity:1;stroke:#000000;stroke-width:0.44672039;stroke-opacity:1"
       id="rect7189"
       width="186.23628"
       height="195.84155"
       x="646.57001"
       y="-712.32025"
       transform="matrix(0,1,-1,0,0,0)" />
    <ellipse
       style="fill:#c8b7b7;stroke:#000000;stroke-width:0.91184896;stroke-opacity:1"
       id="ellipse7191"
       cx="615.10657"
       cy="739.138"
       rx="66.372101"
       ry="68.59993" />
    <text
       xml:space="preserve"
       style="font-style:normal;font-weight:normal;font-size:18.13718033px;line-height:125%;font-family:sans-serif;letter-spacing:0px;word-spacing:0px;fill:#000000;fill-opacity:1;stroke:none;stroke-width:1px;stroke-linecap:butt;stroke-linejoin:miter;stroke-opacity:1"
       x="593.87476"
       y="704.20935"
       id="text7193"
       sodipodi:linespacing="125%"
       transform="scale(0.95926113,1.042469)"><tspan
         sodipodi:role="line"
         id="tspan7195"
         x="593.87476"
         y="704.20935">Store Tests</tspan><tspan
         id="tspan7197"
         sodipodi:role="line"
         x="593.87476"
         y="726.8808">Results</tspan></text>
    <text
       xml:space="preserve"
       style="font-style:normal;font-weight:normal;font-size:25.99531174px;line-height:125%;font-family:sans-serif;letter-spacing:0px;word-spacing:0px;fill:#000000;fill-opacity:1;stroke:none;stroke-width:1px;stroke-linecap:butt;stroke-linejoin:miter;stroke-opacity:1"
       x="602.00677"
       y="829.93658"
       id="text7199"
       sodipodi:linespacing="125%"
       transform="scale(0.95500048,1.0471199)"><tspan
         id="tspan7201"
         sodipodi:role="line"
         x="602.00677"
         y="829.93658">SQUAD</tspan></text>
    <rect
       transform="matrix(0,1,-1,0,0,0)"
       y="-721.74982"
       x="272.32614"
       height="214.45799"
       width="239.23466"
       id="rect8769"
       style="fill:#ff6600;fill-opacity:1;stroke:#000000;stroke-width:0.5298273;stroke-opacity:1" />
    <text
       xml:space="preserve"
       style="font-style:normal;font-weight:normal;font-size:21.25px;line-height:125%;font-family:sans-serif;letter-spacing:0px;word-spacing:0px;fill:#000000;fill-opacity:1;stroke:none;stroke-width:1px;stroke-linecap:butt;stroke-linejoin:miter;stroke-opacity:1"
       x="505.89951"
       y="252.97534"
       id="text8771"
       sodipodi:linespacing="125%"><tspan
         id="tspan8773"
         sodipodi:role="line"
         x="505.89951"
         y="252.97534">Web App Dashboard</tspan></text>
    <ellipse
       style="fill:#c8b7b7;stroke:#000000;stroke-width:1.13026583;stroke-opacity:1"
       id="ellipse9559"
       cx="615.47052"
       cy="390.02914"
       rx="86.434868"
       ry="80.934868" />
    <text
       xml:space="preserve"
       style="font-style:normal;font-weight:normal;font-size:15.88518047px;line-height:125%;font-family:sans-serif;letter-spacing:0px;word-spacing:0px;fill:#000000;fill-opacity:1;stroke:none;stroke-width:1px;stroke-linecap:butt;stroke-linejoin:miter;stroke-opacity:1"
       x="570.54608"
       y="342.48294"
       id="text9561"
       sodipodi:linespacing="125%"
       transform="scale(0.96701147,1.0341139)"><tspan
         id="tspan9565"
         sodipodi:role="line"
         x="570.54608"
         y="342.48294">- Show Test</tspan><tspan
         sodipodi:role="line"
         x="570.54608"
         y="362.33942"
         id="tspan9571">  Results</tspan><tspan
         sodipodi:role="line"
         x="570.54608"
         y="382.19589"
         id="tspan9569">- Generate</tspan><tspan
         sodipodi:role="line"
         x="570.54608"
         y="402.05237"
         id="tspan9573">  Test Reports</tspan><tspan
         sodipodi:role="line"
         x="570.54608"
         y="421.90884"
         id="tspan10650">- Graphical Stats</tspan></text>
    <path
       style="fill:none;fill-rule:evenodd;stroke:#000000;stroke-width:1px;stroke-linecap:butt;stroke-linejoin:miter;stroke-opacity:1;marker-end:url(#Arrow1Lend)"
       d="m 120.32191,470.01892 27.69441,80.24487"
       id="path9655"
       inkscape:connector-type="polyline"
       inkscape:connector-curvature="0" />
    <path
       style="fill:none;fill-rule:evenodd;stroke:#000000;stroke-width:1.02465069px;stroke-linecap:butt;stroke-linejoin:miter;stroke-opacity:1;marker-end:url(#marker9707)"
       d="m 351.86867,471.70853 -26.229,78.55669"
       id="path9657"
       inkscape:connector-type="polyline"
       inkscape:connector-curvature="0" />
    <path
       style="fill:none;fill-rule:evenodd;stroke:#000000;stroke-width:0.71351218px;stroke-linecap:butt;stroke-linejoin:miter;stroke-opacity:1;marker-end:url(#marker9801)"
       d="m 202.19459,909.38865 0,79.04471 -37.04906,0"
       id="path9659"
       inkscape:connector-type="orthogonal"
       inkscape:connector-curvature="0" />
    <path
       style="fill:none;fill-rule:evenodd;stroke:#000000;stroke-width:0.76052666px;stroke-linecap:butt;stroke-linejoin:miter;stroke-opacity:1;marker-end:url(#marker9901)"
       d="m 284,909.46072 0,43.90148"
       id="path9661"
       inkscape:connector-type="orthogonal"
       inkscape:connector-curvature="0" />
    <path
       style="fill:none;fill-rule:evenodd;stroke:#000000;stroke-width:0.88936597px;stroke-linecap:butt;stroke-linejoin:miter;stroke-opacity:1;marker-end:url(#marker10007)"
       d="m 402.0706,776.78218 68.95687,0 0,176.96107"
       id="path9663"
       inkscape:connector-type="orthogonal"
       inkscape:connector-curvature="0" />
    <path
       style="fill:none;fill-rule:evenodd;stroke:#000000;stroke-width:1px;stroke-linecap:butt;stroke-linejoin:miter;stroke-opacity:1;marker-end:url(#marker10119)"
       d="m 402.09846,729.86226 114.38024,0"
       id="path9667"
       inkscape:connector-type="orthogonal"
       inkscape:connector-curvature="0"
       inkscape:connection-start="#rect3422"
       inkscape:connection-end="#rect7189" />
    <path
       style="fill:none;fill-rule:evenodd;stroke:#000000;stroke-width:1px;stroke-linecap:butt;stroke-linejoin:miter;stroke-opacity:1;marker-end:url(#marker10237)"
       d="m 614.43196,646.57001 0.0471,-135.0092"
       id="path9669"
       inkscape:connector-type="polyline"
       inkscape:connector-curvature="0"
       inkscape:connection-start="#rect7189"
       inkscape:connection-end="#rect8769" />
    <path
       style="fill:none;fill-rule:evenodd;stroke:#000000;stroke-width:1px;stroke-linecap:butt;stroke-linejoin:miter;stroke-opacity:1;marker-end:url(#marker10361)"
       d="m 124.21063,250.04168 -0.97372,68.35017"
       id="path9671"
       inkscape:connector-type="polyline"
       inkscape:connector-curvature="0"
       inkscape:connection-start="#rect6651"
       inkscape:connection-end="#rect6663" />
    <path
       style="fill:none;fill-rule:evenodd;stroke:#000000;stroke-width:1px;stroke-linecap:butt;stroke-linejoin:miter;stroke-opacity:1;marker-end:url(#marker10491)"
       d="m 345.41166,199.53354 0.17788,127.38959"
       id="path9673"
       inkscape:connector-type="polyline"
       inkscape:connector-curvature="0"
       inkscape:connection-start="#path6691"
       inkscape:connection-end="#rect6675" />
    <path
       style="fill:none;fill-rule:evenodd;stroke:#000000;stroke-width:1px;stroke-linecap:butt;stroke-linejoin:miter;stroke-opacity:1"
       d="m 238.00001,729.86226 0,0"
       id="path10625"
       inkscape:connector-type="orthogonal"
       inkscape:connector-curvature="0"
       inkscape:connection-start="#rect3422"
       inkscape:connection-end="#rect3422" />
  </g>
</svg>
