<?xml version="1.0" standalone="no"?>
<!DOCTYPE svg PUBLIC "-//W3C//DTD SVG 1.1//EN" "http://www.w3.org/Graphics/SVG/1.1/DTD/svg11.dtd">
<svg width="1793px" height="3930px" version="1.1" xmlns="http://www.w3.org/2000/svg">

<!-- This file is a systemd-analyze SVG file. It is best rendered in a   -->
<!-- browser such as Chrome, Chromium or Firefox. Other applications     -->
<!-- that render these files properly but much slower are ImageMagick,   -->
<!-- gimp, inkscape, etc. To display the files on your system, just      -->
<!-- point your browser to this file.                                    -->

<!-- This plot was generated by systemd-analyze version 213              -->

<defs>
  <style type="text/css">
    <![CDATA[
      rect       { stroke-width: 1; stroke-opacity: 0; }
      rect.background   { fill: rgb(255,255,255); }
      rect.activating   { fill: rgb(255,0,0); fill-opacity: 0.7; }
      rect.active       { fill: rgb(200,150,150); fill-opacity: 0.7; }
      rect.deactivating { fill: rgb(150,100,100); fill-opacity: 0.7; }
      rect.kernel       { fill: rgb(150,150,150); fill-opacity: 0.7; }
      rect.initrd       { fill: rgb(150,150,150); fill-opacity: 0.7; }
      rect.firmware     { fill: rgb(150,150,150); fill-opacity: 0.7; }
      rect.loader       { fill: rgb(150,150,150); fill-opacity: 0.7; }
      rect.userspace    { fill: rgb(150,150,150); fill-opacity: 0.7; }
      rect.security     { fill: rgb(144,238,144); fill-opacity: 0.7; }
      rect.generators   { fill: rgb(102,204,255); fill-opacity: 0.7; }
      rect.unitsload    { fill: rgb( 82,184,255); fill-opacity: 0.7; }
      rect.box   { fill: rgb(240,240,240); stroke: rgb(192,192,192); }
      line       { stroke: rgb(64,64,64); stroke-width: 1; }
//    line.sec1  { }
      line.sec5  { stroke-width: 2; }
      line.sec01 { stroke: rgb(224,224,224); stroke-width: 1; }
      text       { font-family: Verdana, Helvetica; font-size: 14px; }
      text.left  { font-family: Verdana, Helvetica; font-size: 14px; text-anchor: start; }
      text.right { font-family: Verdana, Helvetica; font-size: 14px; text-anchor: end; }
      text.sec   { font-size: 10px; }
    ]]>
   </style>
</defs>

<rect class="background" width="100%" height="100%" />
<text x="20" y="50">Startup finished in 3.871s (kernel) + 11.476s (userspace) = 15.348s</text><text x="20" y="30">Linux  (  ) arm </text><g transform="translate(20.000,100)">
<rect class="box" x="0" y="0" width="1534.823" height="3680.000" />
  <line class="sec5" x1="0.000" y1="0" x2="0.000" y2="3680.000" />
  <text class="sec" x="0.000" y="-5.000" >0.0s</text>
  <line class="sec01" x1="10.000" y1="0" x2="10.000" y2="3680.000" />
  <line class="sec01" x1="20.000" y1="0" x2="20.000" y2="3680.000" />
  <line class="sec01" x1="30.000" y1="0" x2="30.000" y2="3680.000" />
  <line class="sec01" x1="40.000" y1="0" x2="40.000" y2="3680.000" />
  <line class="sec01" x1="50.000" y1="0" x2="50.000" y2="3680.000" />
  <line class="sec01" x1="60.000" y1="0" x2="60.000" y2="3680.000" />
  <line class="sec01" x1="70.000" y1="0" x2="70.000" y2="3680.000" />
  <line class="sec01" x1="80.000" y1="0" x2="80.000" y2="3680.000" />
  <line class="sec01" x1="90.000" y1="0" x2="90.000" y2="3680.000" />
  <line class="sec1" x1="100.000" y1="0" x2="100.000" y2="3680.000" />
  <text class="sec" x="100.000" y="-5.000" >1.0s</text>
  <line class="sec01" x1="110.000" y1="0" x2="110.000" y2="3680.000" />
  <line class="sec01" x1="120.000" y1="0" x2="120.000" y2="3680.000" />
  <line class="sec01" x1="130.000" y1="0" x2="130.000" y2="3680.000" />
  <line class="sec01" x1="140.000" y1="0" x2="140.000" y2="3680.000" />
  <line class="sec01" x1="150.000" y1="0" x2="150.000" y2="3680.000" />
  <line class="sec01" x1="160.000" y1="0" x2="160.000" y2="3680.000" />
  <line class="sec01" x1="170.000" y1="0" x2="170.000" y2="3680.000" />
  <line class="sec01" x1="180.000" y1="0" x2="180.000" y2="3680.000" />
  <line class="sec01" x1="190.000" y1="0" x2="190.000" y2="3680.000" />
  <line class="sec1" x1="200.000" y1="0" x2="200.000" y2="3680.000" />
  <text class="sec" x="200.000" y="-5.000" >2.0s</text>
  <line class="sec01" x1="210.000" y1="0" x2="210.000" y2="3680.000" />
  <line class="sec01" x1="220.000" y1="0" x2="220.000" y2="3680.000" />
  <line class="sec01" x1="230.000" y1="0" x2="230.000" y2="3680.000" />
  <line class="sec01" x1="240.000" y1="0" x2="240.000" y2="3680.000" />
  <line class="sec01" x1="250.000" y1="0" x2="250.000" y2="3680.000" />
  <line class="sec01" x1="260.000" y1="0" x2="260.000" y2="3680.000" />
  <line class="sec01" x1="270.000" y1="0" x2="270.000" y2="3680.000" />
  <line class="sec01" x1="280.000" y1="0" x2="280.000" y2="3680.000" />
  <line class="sec01" x1="290.000" y1="0" x2="290.000" y2="3680.000" />
  <line class="sec1" x1="300.000" y1="0" x2="300.000" y2="3680.000" />
  <text class="sec" x="300.000" y="-5.000" >3.0s</text>
  <line class="sec01" x1="310.000" y1="0" x2="310.000" y2="3680.000" />
  <line class="sec01" x1="320.000" y1="0" x2="320.000" y2="3680.000" />
  <line class="sec01" x1="330.000" y1="0" x2="330.000" y2="3680.000" />
  <line class="sec01" x1="340.000" y1="0" x2="340.000" y2="3680.000" />
  <line class="sec01" x1="350.000" y1="0" x2="350.000" y2="3680.000" />
  <line class="sec01" x1="360.000" y1="0" x2="360.000" y2="3680.000" />
  <line class="sec01" x1="370.000" y1="0" x2="370.000" y2="3680.000" />
  <line class="sec01" x1="380.000" y1="0" x2="380.000" y2="3680.000" />
  <line class="sec01" x1="390.000" y1="0" x2="390.000" y2="3680.000" />
  <line class="sec1" x1="400.000" y1="0" x2="400.000" y2="3680.000" />
  <text class="sec" x="400.000" y="-5.000" >4.0s</text>
  <line class="sec01" x1="410.000" y1="0" x2="410.000" y2="3680.000" />
  <line class="sec01" x1="420.000" y1="0" x2="420.000" y2="3680.000" />
  <line class="sec01" x1="430.000" y1="0" x2="430.000" y2="3680.000" />
  <line class="sec01" x1="440.000" y1="0" x2="440.000" y2="3680.000" />
  <line class="sec01" x1="450.000" y1="0" x2="450.000" y2="3680.000" />
  <line class="sec01" x1="460.000" y1="0" x2="460.000" y2="3680.000" />
  <line class="sec01" x1="470.000" y1="0" x2="470.000" y2="3680.000" />
  <line class="sec01" x1="480.000" y1="0" x2="480.000" y2="3680.000" />
  <line class="sec01" x1="490.000" y1="0" x2="490.000" y2="3680.000" />
  <line class="sec5" x1="500.000" y1="0" x2="500.000" y2="3680.000" />
  <text class="sec" x="500.000" y="-5.000" >5.0s</text>
  <line class="sec01" x1="510.000" y1="0" x2="510.000" y2="3680.000" />
  <line class="sec01" x1="520.000" y1="0" x2="520.000" y2="3680.000" />
  <line class="sec01" x1="530.000" y1="0" x2="530.000" y2="3680.000" />
  <line class="sec01" x1="540.000" y1="0" x2="540.000" y2="3680.000" />
  <line class="sec01" x1="550.000" y1="0" x2="550.000" y2="3680.000" />
  <line class="sec01" x1="560.000" y1="0" x2="560.000" y2="3680.000" />
  <line class="sec01" x1="570.000" y1="0" x2="570.000" y2="3680.000" />
  <line class="sec01" x1="580.000" y1="0" x2="580.000" y2="3680.000" />
  <line class="sec01" x1="590.000" y1="0" x2="590.000" y2="3680.000" />
  <line class="sec1" x1="600.000" y1="0" x2="600.000" y2="3680.000" />
  <text class="sec" x="600.000" y="-5.000" >6.0s</text>
  <line class="sec01" x1="610.000" y1="0" x2="610.000" y2="3680.000" />
  <line class="sec01" x1="620.000" y1="0" x2="620.000" y2="3680.000" />
  <line class="sec01" x1="630.000" y1="0" x2="630.000" y2="3680.000" />
  <line class="sec01" x1="640.000" y1="0" x2="640.000" y2="3680.000" />
  <line class="sec01" x1="650.000" y1="0" x2="650.000" y2="3680.000" />
  <line class="sec01" x1="660.000" y1="0" x2="660.000" y2="3680.000" />
  <line class="sec01" x1="670.000" y1="0" x2="670.000" y2="3680.000" />
  <line class="sec01" x1="680.000" y1="0" x2="680.000" y2="3680.000" />
  <line class="sec01" x1="690.000" y1="0" x2="690.000" y2="3680.000" />
  <line class="sec1" x1="700.000" y1="0" x2="700.000" y2="3680.000" />
  <text class="sec" x="700.000" y="-5.000" >7.0s</text>
  <line class="sec01" x1="710.000" y1="0" x2="710.000" y2="3680.000" />
  <line class="sec01" x1="720.000" y1="0" x2="720.000" y2="3680.000" />
  <line class="sec01" x1="730.000" y1="0" x2="730.000" y2="3680.000" />
  <line class="sec01" x1="740.000" y1="0" x2="740.000" y2="3680.000" />
  <line class="sec01" x1="750.000" y1="0" x2="750.000" y2="3680.000" />
  <line class="sec01" x1="760.000" y1="0" x2="760.000" y2="3680.000" />
  <line class="sec01" x1="770.000" y1="0" x2="770.000" y2="3680.000" />
  <line class="sec01" x1="780.000" y1="0" x2="780.000" y2="3680.000" />
  <line class="sec01" x1="790.000" y1="0" x2="790.000" y2="3680.000" />
  <line class="sec1" x1="800.000" y1="0" x2="800.000" y2="3680.000" />
  <text class="sec" x="800.000" y="-5.000" >8.0s</text>
  <line class="sec01" x1="810.000" y1="0" x2="810.000" y2="3680.000" />
  <line class="sec01" x1="820.000" y1="0" x2="820.000" y2="3680.000" />
  <line class="sec01" x1="830.000" y1="0" x2="830.000" y2="3680.000" />
  <line class="sec01" x1="840.000" y1="0" x2="840.000" y2="3680.000" />
  <line class="sec01" x1="850.000" y1="0" x2="850.000" y2="3680.000" />
  <line class="sec01" x1="860.000" y1="0" x2="860.000" y2="3680.000" />
  <line class="sec01" x1="870.000" y1="0" x2="870.000" y2="3680.000" />
  <line class="sec01" x1="880.000" y1="0" x2="880.000" y2="3680.000" />
  <line class="sec01" x1="890.000" y1="0" x2="890.000" y2="3680.000" />
  <line class="sec1" x1="900.000" y1="0" x2="900.000" y2="3680.000" />
  <text class="sec" x="900.000" y="-5.000" >9.0s</text>
  <line class="sec01" x1="910.000" y1="0" x2="910.000" y2="3680.000" />
  <line class="sec01" x1="920.000" y1="0" x2="920.000" y2="3680.000" />
  <line class="sec01" x1="930.000" y1="0" x2="930.000" y2="3680.000" />
  <line class="sec01" x1="940.000" y1="0" x2="940.000" y2="3680.000" />
  <line class="sec01" x1="950.000" y1="0" x2="950.000" y2="3680.000" />
  <line class="sec01" x1="960.000" y1="0" x2="960.000" y2="3680.000" />
  <line class="sec01" x1="970.000" y1="0" x2="970.000" y2="3680.000" />
  <line class="sec01" x1="980.000" y1="0" x2="980.000" y2="3680.000" />
  <line class="sec01" x1="990.000" y1="0" x2="990.000" y2="3680.000" />
  <line class="sec5" x1="1000.000" y1="0" x2="1000.000" y2="3680.000" />
  <text class="sec" x="1000.000" y="-5.000" >10.0s</text>
  <line class="sec01" x1="1010.000" y1="0" x2="1010.000" y2="3680.000" />
  <line class="sec01" x1="1020.000" y1="0" x2="1020.000" y2="3680.000" />
  <line class="sec01" x1="1030.000" y1="0" x2="1030.000" y2="3680.000" />
  <line class="sec01" x1="1040.000" y1="0" x2="1040.000" y2="3680.000" />
  <line class="sec01" x1="1050.000" y1="0" x2="1050.000" y2="3680.000" />
  <line class="sec01" x1="1060.000" y1="0" x2="1060.000" y2="3680.000" />
  <line class="sec01" x1="1070.000" y1="0" x2="1070.000" y2="3680.000" />
  <line class="sec01" x1="1080.000" y1="0" x2="1080.000" y2="3680.000" />
  <line class="sec01" x1="1090.000" y1="0" x2="1090.000" y2="3680.000" />
  <line class="sec1" x1="1100.000" y1="0" x2="1100.000" y2="3680.000" />
  <text class="sec" x="1100.000" y="-5.000" >11.0s</text>
  <line class="sec01" x1="1110.000" y1="0" x2="1110.000" y2="3680.000" />
  <line class="sec01" x1="1120.000" y1="0" x2="1120.000" y2="3680.000" />
  <line class="sec01" x1="1130.000" y1="0" x2="1130.000" y2="3680.000" />
  <line class="sec01" x1="1140.000" y1="0" x2="1140.000" y2="3680.000" />
  <line class="sec01" x1="1150.000" y1="0" x2="1150.000" y2="3680.000" />
  <line class="sec01" x1="1160.000" y1="0" x2="1160.000" y2="3680.000" />
  <line class="sec01" x1="1170.000" y1="0" x2="1170.000" y2="3680.000" />
  <line class="sec01" x1="1180.000" y1="0" x2="1180.000" y2="3680.000" />
  <line class="sec01" x1="1190.000" y1="0" x2="1190.000" y2="3680.000" />
  <line class="sec1" x1="1200.000" y1="0" x2="1200.000" y2="3680.000" />
  <text class="sec" x="1200.000" y="-5.000" >12.0s</text>
  <line class="sec01" x1="1210.000" y1="0" x2="1210.000" y2="3680.000" />
  <line class="sec01" x1="1220.000" y1="0" x2="1220.000" y2="3680.000" />
  <line class="sec01" x1="1230.000" y1="0" x2="1230.000" y2="3680.000" />
  <line class="sec01" x1="1240.000" y1="0" x2="1240.000" y2="3680.000" />
  <line class="sec01" x1="1250.000" y1="0" x2="1250.000" y2="3680.000" />
  <line class="sec01" x1="1260.000" y1="0" x2="1260.000" y2="3680.000" />
  <line class="sec01" x1="1270.000" y1="0" x2="1270.000" y2="3680.000" />
  <line class="sec01" x1="1280.000" y1="0" x2="1280.000" y2="3680.000" />
  <line class="sec01" x1="1290.000" y1="0" x2="1290.000" y2="3680.000" />
  <line class="sec1" x1="1300.000" y1="0" x2="1300.000" y2="3680.000" />
  <text class="sec" x="1300.000" y="-5.000" >13.0s</text>
  <line class="sec01" x1="1310.000" y1="0" x2="1310.000" y2="3680.000" />
  <line class="sec01" x1="1320.000" y1="0" x2="1320.000" y2="3680.000" />
  <line class="sec01" x1="1330.000" y1="0" x2="1330.000" y2="3680.000" />
  <line class="sec01" x1="1340.000" y1="0" x2="1340.000" y2="3680.000" />
  <line class="sec01" x1="1350.000" y1="0" x2="1350.000" y2="3680.000" />
  <line class="sec01" x1="1360.000" y1="0" x2="1360.000" y2="3680.000" />
  <line class="sec01" x1="1370.000" y1="0" x2="1370.000" y2="3680.000" />
  <line class="sec01" x1="1380.000" y1="0" x2="1380.000" y2="3680.000" />
  <line class="sec01" x1="1390.000" y1="0" x2="1390.000" y2="3680.000" />
  <line class="sec1" x1="1400.000" y1="0" x2="1400.000" y2="3680.000" />
  <text class="sec" x="1400.000" y="-5.000" >14.0s</text>
  <line class="sec01" x1="1410.000" y1="0" x2="1410.000" y2="3680.000" />
  <line class="sec01" x1="1420.000" y1="0" x2="1420.000" y2="3680.000" />
  <line class="sec01" x1="1430.000" y1="0" x2="1430.000" y2="3680.000" />
  <line class="sec01" x1="1440.000" y1="0" x2="1440.000" y2="3680.000" />
  <line class="sec01" x1="1450.000" y1="0" x2="1450.000" y2="3680.000" />
  <line class="sec01" x1="1460.000" y1="0" x2="1460.000" y2="3680.000" />
  <line class="sec01" x1="1470.000" y1="0" x2="1470.000" y2="3680.000" />
  <line class="sec01" x1="1480.000" y1="0" x2="1480.000" y2="3680.000" />
  <line class="sec01" x1="1490.000" y1="0" x2="1490.000" y2="3680.000" />
  <line class="sec5" x1="1500.000" y1="0" x2="1500.000" y2="3680.000" />
  <text class="sec" x="1500.000" y="-5.000" >15.0s</text>
  <line class="sec01" x1="1510.000" y1="0" x2="1510.000" y2="3680.000" />
  <line class="sec01" x1="1520.000" y1="0" x2="1520.000" y2="3680.000" />
  <line class="sec01" x1="1530.000" y1="0" x2="1530.000" y2="3680.000" />
  <rect class="kernel" x="0.000" y="0.000" width="387.149" height="19.000" />
  <text class="left" x="5.000" y="14.000">kernel</text>
  <rect class="active" x="387.149" y="20.000" width="1147.675" height="19.000" />
  <rect class="security" x="387.284" y="20.000" width="0.448" height="19.000" />
  <rect class="generators" x="421.298" y="20.000" width="19.623" height="19.000" />
  <rect class="unitsload" x="443.389" y="20.000" width="17.727" height="19.000" />
  <text class="left" x="392.149" y="34.000">systemd</text>
  <rect class="activating" x="461.154" y="40.000" width="0.000" height="19.000" />
  <rect class="active" x="461.154" y="40.000" width="1073.670" height="19.000" />
  <rect class="deactivating" x="1534.823" y="40.000" width="0.000" height="19.000" />
  <text class="left" x="466.154" y="54.000">-.mount</text>
  <rect class="activating" x="461.674" y="60.000" width="0.000" height="19.000" />
  <rect class="active" x="461.674" y="60.000" width="1073.149" height="19.000" />
  <rect class="deactivating" x="1534.823" y="60.000" width="0.000" height="19.000" />
  <text class="left" x="466.674" y="74.000">systemd-ask-password-wall.path</text>
  <rect class="activating" x="461.743" y="80.000" width="0.000" height="19.000" />
  <rect class="active" x="461.743" y="80.000" width="1073.081" height="19.000" />
  <rect class="deactivating" x="1534.823" y="80.000" width="0.000" height="19.000" />
  <text class="left" x="466.743" y="94.000">remote-fs-pre.target</text>
  <rect class="activating" x="461.800" y="100.000" width="0.000" height="19.000" />
  <rect class="active" x="461.800" y="100.000" width="1073.024" height="19.000" />
  <rect class="deactivating" x="1534.823" y="100.000" width="0.000" height="19.000" />
  <text class="left" x="466.800" y="114.000">cryptsetup.target</text>
  <rect class="activating" x="461.931" y="120.000" width="0.000" height="19.000" />
  <rect class="active" x="461.931" y="120.000" width="1072.892" height="19.000" />
  <rect class="deactivating" x="1534.823" y="120.000" width="0.000" height="19.000" />
  <text class="left" x="466.931" y="134.000">proc-sys-fs-binfmt_misc.automount</text>
  <rect class="activating" x="462.010" y="140.000" width="0.000" height="19.000" />
  <rect class="active" x="462.010" y="140.000" width="1072.813" height="19.000" />
  <rect class="deactivating" x="1534.823" y="140.000" width="0.000" height="19.000" />
  <text class="left" x="467.010" y="154.000">swap.target</text>
  <rect class="activating" x="468.549" y="160.000" width="0.000" height="19.000" />
  <rect class="active" x="468.549" y="160.000" width="1066.274" height="19.000" />
  <rect class="deactivating" x="1534.823" y="160.000" width="0.000" height="19.000" />
  <text class="left" x="473.549" y="174.000">-.slice</text>
  <rect class="activating" x="468.655" y="180.000" width="0.000" height="19.000" />
  <rect class="active" x="468.655" y="180.000" width="1066.169" height="19.000" />
  <rect class="deactivating" x="1534.823" y="180.000" width="0.000" height="19.000" />
  <text class="left" x="473.655" y="194.000">systemd-journald.socket</text>
  <rect class="activating" x="468.729" y="200.000" width="0.000" height="19.000" />
  <rect class="active" x="468.729" y="200.000" width="1066.094" height="19.000" />
  <rect class="deactivating" x="1534.823" y="200.000" width="0.000" height="19.000" />
  <text class="left" x="473.729" y="214.000">systemd-shutdownd.socket</text>
  <rect class="activating" x="468.792" y="220.000" width="0.000" height="19.000" />
  <rect class="active" x="468.792" y="220.000" width="1066.031" height="19.000" />
  <rect class="deactivating" x="1534.823" y="220.000" width="0.000" height="19.000" />
  <text class="left" x="473.792" y="234.000">systemd-initctl.socket</text>
  <rect class="activating" x="469.030" y="240.000" width="0.000" height="19.000" />
  <rect class="active" x="469.030" y="240.000" width="1065.794" height="19.000" />
  <rect class="deactivating" x="1534.823" y="240.000" width="0.000" height="19.000" />
  <text class="left" x="474.030" y="254.000">user.slice</text>
  <rect class="activating" x="469.112" y="260.000" width="0.000" height="19.000" />
  <rect class="active" x="469.112" y="260.000" width="1065.711" height="19.000" />
  <rect class="deactivating" x="1534.823" y="260.000" width="0.000" height="19.000" />
  <text class="left" x="474.112" y="274.000">systemd-udevd-kernel.socket</text>
  <rect class="activating" x="469.184" y="280.000" width="0.000" height="19.000" />
  <rect class="active" x="469.184" y="280.000" width="1065.640" height="19.000" />
  <rect class="deactivating" x="1534.823" y="280.000" width="0.000" height="19.000" />
  <text class="left" x="474.184" y="294.000">systemd-udevd-control.socket</text>
  <rect class="activating" x="469.371" y="300.000" width="0.000" height="19.000" />
  <rect class="active" x="469.371" y="300.000" width="1065.452" height="19.000" />
  <rect class="deactivating" x="1534.823" y="300.000" width="0.000" height="19.000" />
  <text class="left" x="474.371" y="314.000">system.slice</text>
  <rect class="activating" x="475.135" y="320.000" width="33.919" height="19.000" />
  <rect class="active" x="509.054" y="320.000" width="1025.769" height="19.000" />
  <rect class="deactivating" x="1534.823" y="320.000" width="0.000" height="19.000" />
  <text class="left" x="480.135" y="334.000">systemd-modules-load.service (339ms)</text>
  <rect class="activating" x="479.051" y="340.000" width="89.256" height="19.000" />
  <rect class="active" x="568.306" y="340.000" width="966.517" height="19.000" />
  <rect class="deactivating" x="1534.823" y="340.000" width="0.000" height="19.000" />
  <text class="left" x="484.051" y="354.000">dev-mqueue.mount (892ms)</text>
  <rect class="activating" x="485.091" y="360.000" width="25.160" height="19.000" />
  <rect class="active" x="510.251" y="360.000" width="1024.572" height="19.000" />
  <rect class="deactivating" x="1534.823" y="360.000" width="0.000" height="19.000" />
  <text class="left" x="490.091" y="374.000">kmod-static-nodes.service (251ms)</text>
  <rect class="activating" x="486.024" y="380.000" width="82.165" height="19.000" />
  <rect class="active" x="568.188" y="380.000" width="966.635" height="19.000" />
  <rect class="deactivating" x="1534.823" y="380.000" width="0.000" height="19.000" />
  <text class="left" x="491.024" y="394.000">sys-kernel-debug.mount (821ms)</text>
  <rect class="activating" x="493.099" y="400.000" width="0.000" height="19.000" />
  <rect class="active" x="493.099" y="400.000" width="1041.724" height="19.000" />
  <rect class="deactivating" x="1534.823" y="400.000" width="0.000" height="19.000" />
  <text class="left" x="498.099" y="414.000">systemd-journald.service</text>
  <rect class="activating" x="498.076" y="420.000" width="13.143" height="19.000" />
  <rect class="active" x="511.219" y="420.000" width="1023.605" height="19.000" />
  <rect class="deactivating" x="1534.823" y="420.000" width="0.000" height="19.000" />
  <text class="left" x="503.076" y="434.000">systemd-sysctl.service (131ms)</text>
  <rect class="activating" x="500.062" y="440.000" width="16.986" height="19.000" />
  <rect class="active" x="517.048" y="440.000" width="1017.775" height="19.000" />
  <rect class="deactivating" x="1534.823" y="440.000" width="0.000" height="19.000" />
  <text class="left" x="505.062" y="454.000">systemd-fsck-root.service (169ms)</text>
  <rect class="activating" x="500.246" y="460.000" width="0.000" height="19.000" />
  <rect class="active" x="500.246" y="460.000" width="1034.578" height="19.000" />
  <rect class="deactivating" x="1534.823" y="460.000" width="0.000" height="19.000" />
  <text class="left" x="505.246" y="474.000">system-systemd\x2dfsck.slice</text>
  <rect class="activating" x="501.046" y="480.000" width="67.344" height="19.000" />
  <rect class="active" x="568.390" y="480.000" width="966.434" height="19.000" />
  <rect class="deactivating" x="1534.823" y="480.000" width="0.000" height="19.000" />
  <text class="left" x="506.046" y="494.000">tmp.mount (673ms)</text>
  <rect class="activating" x="501.208" y="500.000" width="0.000" height="19.000" />
  <rect class="active" x="501.208" y="500.000" width="1033.615" height="19.000" />
  <rect class="deactivating" x="1534.823" y="500.000" width="0.000" height="19.000" />
  <text class="left" x="506.208" y="514.000">system-chaiwala\x2duser.slice</text>
  <rect class="activating" x="501.610" y="520.000" width="0.000" height="19.000" />
  <rect class="active" x="501.610" y="520.000" width="1033.213" height="19.000" />
  <rect class="deactivating" x="1534.823" y="520.000" width="0.000" height="19.000" />
  <text class="left" x="506.610" y="534.000">system-getty.slice</text>
  <rect class="activating" x="502.147" y="540.000" width="0.000" height="19.000" />
  <rect class="active" x="502.147" y="540.000" width="1032.677" height="19.000" />
  <rect class="deactivating" x="1534.823" y="540.000" width="0.000" height="19.000" />
  <text class="left" x="507.147" y="554.000">system-serial\x2dgetty.slice</text>
  <rect class="activating" x="506.349" y="560.000" width="76.712" height="19.000" />
  <rect class="active" x="583.061" y="560.000" width="951.762" height="19.000" />
  <rect class="deactivating" x="1534.823" y="560.000" width="0.000" height="19.000" />
  <text class="left" x="511.349" y="574.000">systemd-udev-trigger.service (767ms)</text>
  <rect class="activating" x="507.012" y="580.000" width="0.000" height="19.000" />
  <rect class="active" x="507.012" y="580.000" width="1027.811" height="19.000" />
  <rect class="deactivating" x="1534.823" y="580.000" width="0.000" height="19.000" />
  <text class="left" x="512.012" y="594.000">slices.target</text>
  <rect class="activating" x="529.086" y="600.000" width="46.997" height="19.000" />
  <rect class="active" x="576.082" y="600.000" width="958.741" height="19.000" />
  <rect class="deactivating" x="1534.823" y="600.000" width="0.000" height="19.000" />
  <text class="left" x="534.086" y="614.000">systemd-remount-fs.service (469ms)</text>
  <rect class="activating" x="535.090" y="620.000" width="14.971" height="19.000" />
  <rect class="active" x="550.061" y="620.000" width="984.762" height="19.000" />
  <rect class="deactivating" x="1534.823" y="620.000" width="0.000" height="19.000" />
  <text class="left" x="540.090" y="634.000">systemd-tmpfiles-setup-dev.service (149ms)</text>
  <rect class="activating" x="568.082" y="640.000" width="15.183" height="19.000" />
  <rect class="active" x="583.265" y="640.000" width="951.558" height="19.000" />
  <rect class="deactivating" x="1534.823" y="640.000" width="0.000" height="19.000" />
  <text class="left" x="573.082" y="654.000">systemd-udevd.service (151ms)</text>
  <rect class="activating" x="594.156" y="660.000" width="37.927" height="19.000" />
  <rect class="active" x="632.083" y="660.000" width="902.740" height="19.000" />
  <rect class="deactivating" x="1534.823" y="660.000" width="0.000" height="19.000" />
  <text class="left" x="599.156" y="674.000">udev-finish.service (379ms)</text>
  <rect class="activating" x="598.130" y="680.000" width="0.000" height="19.000" />
  <rect class="active" x="598.130" y="680.000" width="936.694" height="19.000" />
  <rect class="deactivating" x="1534.823" y="680.000" width="0.000" height="19.000" />
  <text class="left" x="603.130" y="694.000">local-fs-pre.target</text>
  <rect class="activating" x="613.057" y="700.000" width="14.017" height="19.000" />
  <rect class="active" x="627.073" y="700.000" width="907.750" height="19.000" />
  <rect class="deactivating" x="1534.823" y="700.000" width="0.000" height="19.000" />
  <text class="left" x="618.057" y="714.000">etc.mount (140ms)</text>
  <rect class="activating" x="615.657" y="720.000" width="10.969" height="19.000" />
  <rect class="active" x="626.626" y="720.000" width="908.197" height="19.000" />
  <rect class="deactivating" x="1534.823" y="720.000" width="0.000" height="19.000" />
  <text class="left" x="620.657" y="734.000">run-user.mount (109ms)</text>
  <rect class="activating" x="621.045" y="740.000" width="4.306" height="19.000" />
  <rect class="active" x="625.351" y="740.000" width="909.472" height="19.000" />
  <rect class="deactivating" x="1534.823" y="740.000" width="0.000" height="19.000" />
  <text class="left" x="626.045" y="754.000">var.mount (43ms)</text>
  <rect class="activating" x="624.822" y="760.000" width="2.820" height="19.000" />
  <rect class="active" x="627.642" y="760.000" width="907.181" height="19.000" />
  <rect class="deactivating" x="1534.823" y="760.000" width="0.000" height="19.000" />
  <text class="left" x="629.822" y="774.000">run-lock.mount (28ms)</text>
  <rect class="activating" x="676.483" y="780.000" width="0.000" height="19.000" />
  <rect class="active" x="676.483" y="780.000" width="858.340" height="19.000" />
  <rect class="deactivating" x="1534.823" y="780.000" width="0.000" height="19.000" />
  <text class="left" x="681.483" y="794.000">sys-devices-backlight.29-backlight-backlight.29.device</text>
  <rect class="activating" x="679.100" y="800.000" width="0.000" height="19.000" />
  <rect class="active" x="679.100" y="800.000" width="855.723" height="19.000" />
  <rect class="deactivating" x="1534.823" y="800.000" width="0.000" height="19.000" />
  <text class="left" x="684.100" y="814.000">dev-ttymxc0.device</text>
  <rect class="activating" x="679.103" y="820.000" width="0.000" height="19.000" />
  <rect class="active" x="679.103" y="820.000" width="855.721" height="19.000" />
  <rect class="deactivating" x="1534.823" y="820.000" width="0.000" height="19.000" />
  <text class="left" x="684.103" y="834.000">sys-devices-soc.0-2000000.aips\x2dbus-2000000.spba\x2dbus-2020000.serial-tty-ttymxc0.device</text>
  <rect class="activating" x="680.553" y="840.000" width="0.000" height="19.000" />
  <rect class="active" x="680.553" y="840.000" width="854.271" height="19.000" />
  <rect class="deactivating" x="1534.823" y="840.000" width="0.000" height="19.000" />
  <text class="left" x="685.553" y="854.000">sys-subsystem-net-devices-ifb0.device</text>
  <rect class="activating" x="680.555" y="860.000" width="0.000" height="19.000" />
  <rect class="active" x="680.555" y="860.000" width="854.268" height="19.000" />
  <rect class="deactivating" x="1534.823" y="860.000" width="0.000" height="19.000" />
  <text class="left" x="685.555" y="874.000">sys-devices-virtual-net-ifb0.device</text>
  <rect class="activating" x="683.377" y="880.000" width="0.000" height="19.000" />
  <rect class="active" x="683.377" y="880.000" width="851.447" height="19.000" />
  <rect class="deactivating" x="1534.823" y="880.000" width="0.000" height="19.000" />
  <text class="left" x="688.377" y="894.000">sys-subsystem-net-devices-ifb1.device</text>
  <rect class="activating" x="683.379" y="900.000" width="0.000" height="19.000" />
  <rect class="active" x="683.379" y="900.000" width="851.444" height="19.000" />
  <rect class="deactivating" x="1534.823" y="900.000" width="0.000" height="19.000" />
  <text class="left" x="688.379" y="914.000">sys-devices-virtual-net-ifb1.device</text>
  <rect class="activating" x="686.517" y="920.000" width="0.000" height="19.000" />
  <rect class="active" x="686.517" y="920.000" width="848.307" height="19.000" />
  <rect class="deactivating" x="1534.823" y="920.000" width="0.000" height="19.000" />
  <text class="left" x="691.517" y="934.000">sys-subsystem-net-devices-sit0.device</text>
  <rect class="activating" x="686.519" y="940.000" width="0.000" height="19.000" />
  <rect class="active" x="686.519" y="940.000" width="848.304" height="19.000" />
  <rect class="deactivating" x="1534.823" y="940.000" width="0.000" height="19.000" />
  <text class="left" x="691.519" y="954.000">sys-devices-virtual-net-sit0.device</text>
  <rect class="activating" x="688.865" y="960.000" width="0.000" height="19.000" />
  <rect class="active" x="688.865" y="960.000" width="845.959" height="19.000" />
  <rect class="deactivating" x="1534.823" y="960.000" width="0.000" height="19.000" />
  <text class="left" x="693.865" y="974.000">dev-mtdblock0.device</text>
  <rect class="activating" x="688.868" y="980.000" width="0.000" height="19.000" />
  <rect class="active" x="688.868" y="980.000" width="845.955" height="19.000" />
  <rect class="deactivating" x="1534.823" y="980.000" width="0.000" height="19.000" />
  <text class="left" x="693.868" y="994.000">sys-devices-soc.0-2000000.aips\x2dbus-2000000.spba\x2dbus-2008000.ecspi-spi_master-spi32766-spi32766.0-mtd-mtd0-mtdblock0.device</text>
  <rect class="activating" x="701.109" y="1000.000" width="0.000" height="19.000" />
  <rect class="active" x="701.109" y="1000.000" width="833.715" height="19.000" />
  <rect class="deactivating" x="1534.823" y="1000.000" width="0.000" height="19.000" />
  <text class="left" x="706.109" y="1014.000">dev-ttymxc1.device</text>
  <rect class="activating" x="701.704" y="1020.000" width="0.000" height="19.000" />
  <rect class="active" x="701.704" y="1020.000" width="833.120" height="19.000" />
  <rect class="deactivating" x="1534.823" y="1020.000" width="0.000" height="19.000" />
  <text class="left" x="706.704" y="1034.000">sys-devices-soc.0-2100000.aips\x2dbus-21e8000.serial-tty-ttymxc1.device</text>
  <rect class="activating" x="707.354" y="1040.000" width="0.000" height="19.000" />
  <rect class="active" x="707.354" y="1040.000" width="827.470" height="19.000" />
  <rect class="deactivating" x="1534.823" y="1040.000" width="0.000" height="19.000" />
  <text class="left" x="712.354" y="1054.000">dev-disk-by\x2dpath-platform\x2d2198000.usdhc.device</text>
  <rect class="activating" x="707.356" y="1060.000" width="0.000" height="19.000" />
  <rect class="active" x="707.356" y="1060.000" width="827.467" height="19.000" />
  <rect class="deactivating" x="1534.823" y="1060.000" width="0.000" height="19.000" />
  <text class="left" x="712.356" y="1074.000">dev-disk-by\x2did-mmc\x2dSD16G_0x81f8913c.device</text>
  <rect class="activating" x="707.358" y="1080.000" width="0.000" height="19.000" />
  <rect class="active" x="707.358" y="1080.000" width="827.466" height="19.000" />
  <rect class="deactivating" x="1534.823" y="1080.000" width="0.000" height="19.000" />
  <text class="left" x="712.358" y="1094.000">dev-mmcblk0.device</text>
  <rect class="activating" x="707.360" y="1100.000" width="0.000" height="19.000" />
  <rect class="active" x="707.360" y="1100.000" width="827.464" height="19.000" />
  <rect class="deactivating" x="1534.823" y="1100.000" width="0.000" height="19.000" />
  <text class="left" x="712.360" y="1114.000">sys-devices-soc.0-2100000.aips\x2dbus-2198000.usdhc-mmc_host-mmc0-mmc0:e624-block-mmcblk0.device</text>
  <rect class="activating" x="713.289" y="1120.000" width="0.000" height="19.000" />
  <rect class="active" x="713.289" y="1120.000" width="821.535" height="19.000" />
  <rect class="deactivating" x="1534.823" y="1120.000" width="0.000" height="19.000" />
  <text class="left" x="718.289" y="1134.000">sys-subsystem-net-devices-eth0.device</text>
  <rect class="activating" x="713.292" y="1140.000" width="0.000" height="19.000" />
  <rect class="active" x="713.292" y="1140.000" width="821.532" height="19.000" />
  <rect class="deactivating" x="1534.823" y="1140.000" width="0.000" height="19.000" />
  <text class="left" x="718.292" y="1154.000">sys-devices-soc.0-2100000.aips\x2dbus-2188000.ethernet-net-eth0.device</text>
  <rect class="activating" x="717.398" y="1160.000" width="0.000" height="19.000" />
  <rect class="active" x="717.398" y="1160.000" width="817.426" height="19.000" />
  <rect class="deactivating" x="1534.823" y="1160.000" width="0.000" height="19.000" />
  <text class="left" x="722.398" y="1174.000">system-ifup.slice</text>
  <rect class="activating" x="721.629" y="1180.000" width="0.000" height="19.000" />
  <rect class="active" x="721.629" y="1180.000" width="813.194" height="19.000" />
  <rect class="deactivating" x="1534.823" y="1180.000" width="0.000" height="19.000" />
  <text class="left" x="726.629" y="1194.000">system-systemd\x2dbacklight.slice</text>
  <rect class="activating" x="729.081" y="1200.000" width="33.022" height="19.000" />
  <rect class="active" x="762.102" y="1200.000" width="772.721" height="19.000" />
  <rect class="deactivating" x="1534.823" y="1200.000" width="0.000" height="19.000" />
  <text class="left" x="734.081" y="1214.000">systemd-backlight@backlight:backlight.29.service (330ms)</text>
  <rect class="activating" x="735.115" y="1220.000" width="31.532" height="19.000" />
  <rect class="active" x="766.648" y="1220.000" width="768.176" height="19.000" />
  <rect class="deactivating" x="1534.823" y="1220.000" width="0.000" height="19.000" />
  <text class="left" x="740.115" y="1234.000">etc-rw.service (315ms)</text>
  <rect class="activating" x="747.120" y="1240.000" width="22.945" height="19.000" />
  <rect class="active" x="770.065" y="1240.000" width="764.759" height="19.000" />
  <rect class="deactivating" x="1534.823" y="1240.000" width="0.000" height="19.000" />
  <text class="left" x="752.120" y="1254.000">var-rw.service (229ms)</text>
  <rect class="activating" x="774.244" y="1260.000" width="0.000" height="19.000" />
  <rect class="active" x="774.244" y="1260.000" width="760.580" height="19.000" />
  <rect class="deactivating" x="1534.823" y="1260.000" width="0.000" height="19.000" />
  <text class="left" x="779.244" y="1274.000">dev-disk-by\x2dpath-platform\x2d2198000.usdhc\x2dpart3.device</text>
  <rect class="activating" x="774.246" y="1280.000" width="0.000" height="19.000" />
  <rect class="active" x="774.246" y="1280.000" width="760.577" height="19.000" />
  <rect class="deactivating" x="1534.823" y="1280.000" width="0.000" height="19.000" />
  <text class="left" x="779.246" y="1294.000">dev-disk-by\x2dpartuuid-f3849653\x2d3901\x2d4251\x2dad51\x2d294c064e8405.device</text>
  <rect class="activating" x="774.247" y="1300.000" width="0.000" height="19.000" />
  <rect class="active" x="774.247" y="1300.000" width="760.576" height="19.000" />
  <rect class="deactivating" x="1534.823" y="1300.000" width="0.000" height="19.000" />
  <text class="left" x="779.247" y="1314.000">dev-disk-by\x2dpartlabel-flags.device</text>
  <rect class="activating" x="774.248" y="1320.000" width="0.000" height="19.000" />
  <rect class="active" x="774.248" y="1320.000" width="760.575" height="19.000" />
  <rect class="deactivating" x="1534.823" y="1320.000" width="0.000" height="19.000" />
  <text class="left" x="779.248" y="1334.000">dev-disk-by\x2did-mmc\x2dSD16G_0x81f8913c\x2dpart3.device</text>
  <rect class="activating" x="774.249" y="1340.000" width="0.000" height="19.000" />
  <rect class="active" x="774.249" y="1340.000" width="760.574" height="19.000" />
  <rect class="deactivating" x="1534.823" y="1340.000" width="0.000" height="19.000" />
  <text class="left" x="779.249" y="1354.000">dev-mmcblk0p3.device</text>
  <rect class="activating" x="774.250" y="1360.000" width="0.000" height="19.000" />
  <rect class="active" x="774.250" y="1360.000" width="760.573" height="19.000" />
  <rect class="deactivating" x="1534.823" y="1360.000" width="0.000" height="19.000" />
  <text class="left" x="779.250" y="1374.000">sys-devices-soc.0-2100000.aips\x2dbus-2198000.usdhc-mmc_host-mmc0-mmc0:e624-block-mmcblk0-mmcblk0p3.device</text>
  <rect class="activating" x="776.129" y="1380.000" width="0.000" height="19.000" />
  <rect class="active" x="776.129" y="1380.000" width="758.694" height="19.000" />
  <rect class="deactivating" x="1534.823" y="1380.000" width="0.000" height="19.000" />
  <text class="left" x="781.129" y="1394.000">dev-disk-by\x2duuid-2667\x2dC282.device</text>
  <rect class="activating" x="776.131" y="1400.000" width="0.000" height="19.000" />
  <rect class="active" x="776.131" y="1400.000" width="758.692" height="19.000" />
  <rect class="deactivating" x="1534.823" y="1400.000" width="0.000" height="19.000" />
  <text class="left" x="781.131" y="1414.000">dev-disk-by\x2dpath-platform\x2d2198000.usdhc\x2dpart4.device</text>
  <rect class="activating" x="776.133" y="1420.000" width="0.000" height="19.000" />
  <rect class="active" x="776.133" y="1420.000" width="758.691" height="19.000" />
  <rect class="deactivating" x="1534.823" y="1420.000" width="0.000" height="19.000" />
  <text class="left" x="781.133" y="1434.000">dev-disk-by\x2dpartuuid-dd6033c5\x2d78a2\x2d4dea\x2d96bc\x2d7d2d2cd85d83.device</text>
  <rect class="activating" x="776.134" y="1440.000" width="0.000" height="19.000" />
  <rect class="active" x="776.134" y="1440.000" width="758.690" height="19.000" />
  <rect class="deactivating" x="1534.823" y="1440.000" width="0.000" height="19.000" />
  <text class="left" x="781.134" y="1454.000">dev-disk-by\x2dpartlabel-boot_1.device</text>
  <rect class="activating" x="776.135" y="1460.000" width="0.000" height="19.000" />
  <rect class="active" x="776.135" y="1460.000" width="758.689" height="19.000" />
  <rect class="deactivating" x="1534.823" y="1460.000" width="0.000" height="19.000" />
  <text class="left" x="781.135" y="1474.000">dev-disk-by\x2dlabel-boot_1.device</text>
  <rect class="activating" x="776.136" y="1480.000" width="0.000" height="19.000" />
  <rect class="active" x="776.136" y="1480.000" width="758.688" height="19.000" />
  <rect class="deactivating" x="1534.823" y="1480.000" width="0.000" height="19.000" />
  <text class="left" x="781.136" y="1494.000">dev-disk-by\x2did-mmc\x2dSD16G_0x81f8913c\x2dpart4.device</text>
  <rect class="activating" x="776.137" y="1500.000" width="0.000" height="19.000" />
  <rect class="active" x="776.137" y="1500.000" width="758.686" height="19.000" />
  <rect class="deactivating" x="1534.823" y="1500.000" width="0.000" height="19.000" />
  <text class="left" x="781.137" y="1514.000">dev-mmcblk0p4.device</text>
  <rect class="activating" x="776.138" y="1520.000" width="0.000" height="19.000" />
  <rect class="active" x="776.138" y="1520.000" width="758.685" height="19.000" />
  <rect class="deactivating" x="1534.823" y="1520.000" width="0.000" height="19.000" />
  <text class="left" x="781.138" y="1534.000">sys-devices-soc.0-2100000.aips\x2dbus-2198000.usdhc-mmc_host-mmc0-mmc0:e624-block-mmcblk0-mmcblk0p4.device</text>
  <rect class="activating" x="778.294" y="1540.000" width="0.000" height="19.000" />
  <rect class="active" x="778.294" y="1540.000" width="756.529" height="19.000" />
  <rect class="deactivating" x="1534.823" y="1540.000" width="0.000" height="19.000" />
  <text class="left" x="783.294" y="1554.000">dev-disk-by\x2duuid-2678\x2dB54D.device</text>
  <rect class="activating" x="778.296" y="1560.000" width="0.000" height="19.000" />
  <rect class="active" x="778.296" y="1560.000" width="756.527" height="19.000" />
  <rect class="deactivating" x="1534.823" y="1560.000" width="0.000" height="19.000" />
  <text class="left" x="783.296" y="1574.000">dev-disk-by\x2dpath-platform\x2d2198000.usdhc\x2dpart5.device</text>
  <rect class="activating" x="778.297" y="1580.000" width="0.000" height="19.000" />
  <rect class="active" x="778.297" y="1580.000" width="756.526" height="19.000" />
  <rect class="deactivating" x="1534.823" y="1580.000" width="0.000" height="19.000" />
  <text class="left" x="783.297" y="1594.000">dev-disk-by\x2dpartuuid-461d5163\x2d62a6\x2d435c\x2d8b3f\x2dee751208b423.device</text>
  <rect class="activating" x="778.298" y="1600.000" width="0.000" height="19.000" />
  <rect class="active" x="778.298" y="1600.000" width="756.525" height="19.000" />
  <rect class="deactivating" x="1534.823" y="1600.000" width="0.000" height="19.000" />
  <text class="left" x="783.298" y="1614.000">dev-disk-by\x2dpartlabel-boot_2.device</text>
  <rect class="activating" x="778.300" y="1620.000" width="0.000" height="19.000" />
  <rect class="active" x="778.300" y="1620.000" width="756.524" height="19.000" />
  <rect class="deactivating" x="1534.823" y="1620.000" width="0.000" height="19.000" />
  <text class="left" x="783.300" y="1634.000">dev-disk-by\x2dlabel-boot_2.device</text>
  <rect class="activating" x="778.301" y="1640.000" width="0.000" height="19.000" />
  <rect class="active" x="778.301" y="1640.000" width="756.523" height="19.000" />
  <rect class="deactivating" x="1534.823" y="1640.000" width="0.000" height="19.000" />
  <text class="left" x="783.301" y="1654.000">dev-disk-by\x2did-mmc\x2dSD16G_0x81f8913c\x2dpart5.device</text>
  <rect class="activating" x="778.302" y="1660.000" width="0.000" height="19.000" />
  <rect class="active" x="778.302" y="1660.000" width="756.522" height="19.000" />
  <rect class="deactivating" x="1534.823" y="1660.000" width="0.000" height="19.000" />
  <text class="left" x="783.302" y="1674.000">dev-mmcblk0p5.device</text>
  <rect class="activating" x="778.303" y="1680.000" width="0.000" height="19.000" />
  <rect class="active" x="778.303" y="1680.000" width="756.521" height="19.000" />
  <rect class="deactivating" x="1534.823" y="1680.000" width="0.000" height="19.000" />
  <text class="left" x="783.303" y="1694.000">sys-devices-soc.0-2100000.aips\x2dbus-2198000.usdhc-mmc_host-mmc0-mmc0:e624-block-mmcblk0-mmcblk0p5.device</text>
  <rect class="activating" x="784.569" y="1700.000" width="0.000" height="19.000" />
  <rect class="active" x="784.569" y="1700.000" width="750.255" height="19.000" />
  <rect class="deactivating" x="1534.823" y="1700.000" width="0.000" height="19.000" />
  <text class="left" x="789.569" y="1714.000">dev-disk-by\x2duuid-2645\x2d7FE0.device</text>
  <rect class="activating" x="784.571" y="1720.000" width="0.000" height="19.000" />
  <rect class="active" x="784.571" y="1720.000" width="750.253" height="19.000" />
  <rect class="deactivating" x="1534.823" y="1720.000" width="0.000" height="19.000" />
  <text class="left" x="789.571" y="1734.000">dev-disk-by\x2dpath-platform\x2d2198000.usdhc\x2dpart1.device</text>
  <rect class="activating" x="784.572" y="1740.000" width="0.000" height="19.000" />
  <rect class="active" x="784.572" y="1740.000" width="750.251" height="19.000" />
  <rect class="deactivating" x="1534.823" y="1740.000" width="0.000" height="19.000" />
  <text class="left" x="789.572" y="1754.000">dev-disk-by\x2dpartuuid-569866f5\x2de961\x2d4d94\x2d98e0\x2d5d29c89b5fbf.device</text>
  <rect class="activating" x="784.573" y="1760.000" width="0.000" height="19.000" />
  <rect class="active" x="784.573" y="1760.000" width="750.250" height="19.000" />
  <rect class="deactivating" x="1534.823" y="1760.000" width="0.000" height="19.000" />
  <text class="left" x="789.573" y="1774.000">dev-disk-by\x2dpartlabel-boot.device</text>
  <rect class="activating" x="784.574" y="1780.000" width="0.000" height="19.000" />
  <rect class="active" x="784.574" y="1780.000" width="750.249" height="19.000" />
  <rect class="deactivating" x="1534.823" y="1780.000" width="0.000" height="19.000" />
  <text class="left" x="789.574" y="1794.000">dev-disk-by\x2dlabel-boot.device</text>
  <rect class="activating" x="784.576" y="1800.000" width="0.000" height="19.000" />
  <rect class="active" x="784.576" y="1800.000" width="750.248" height="19.000" />
  <rect class="deactivating" x="1534.823" y="1800.000" width="0.000" height="19.000" />
  <text class="left" x="789.576" y="1814.000">dev-disk-by\x2did-mmc\x2dSD16G_0x81f8913c\x2dpart1.device</text>
  <rect class="activating" x="784.577" y="1820.000" width="0.000" height="19.000" />
  <rect class="active" x="784.577" y="1820.000" width="750.247" height="19.000" />
  <rect class="deactivating" x="1534.823" y="1820.000" width="0.000" height="19.000" />
  <text class="left" x="789.577" y="1834.000">dev-mmcblk0p1.device</text>
  <rect class="activating" x="784.578" y="1840.000" width="0.000" height="19.000" />
  <rect class="active" x="784.578" y="1840.000" width="750.246" height="19.000" />
  <rect class="deactivating" x="1534.823" y="1840.000" width="0.000" height="19.000" />
  <text class="left" x="789.578" y="1854.000">sys-devices-soc.0-2100000.aips\x2dbus-2198000.usdhc-mmc_host-mmc0-mmc0:e624-block-mmcblk0-mmcblk0p1.device</text>
  <rect class="activating" x="790.718" y="1860.000" width="0.000" height="19.000" />
  <rect class="active" x="790.718" y="1860.000" width="744.105" height="19.000" />
  <rect class="deactivating" x="1534.823" y="1860.000" width="0.000" height="19.000" />
  <text class="left" x="795.718" y="1874.000">dev-disk-by\x2dpath-platform\x2d2198000.usdhc\x2dpart8.device</text>
  <rect class="activating" x="790.721" y="1880.000" width="0.000" height="19.000" />
  <rect class="active" x="790.721" y="1880.000" width="744.103" height="19.000" />
  <rect class="deactivating" x="1534.823" y="1880.000" width="0.000" height="19.000" />
  <text class="left" x="795.721" y="1894.000">dev-disk-by\x2dpartuuid-c18facc6\x2d9bc6\x2d4d87\x2d9666\x2d4c8c31f193b0.device</text>
  <rect class="activating" x="790.722" y="1900.000" width="0.000" height="19.000" />
  <rect class="active" x="790.722" y="1900.000" width="744.102" height="19.000" />
  <rect class="deactivating" x="1534.823" y="1900.000" width="0.000" height="19.000" />
  <text class="left" x="795.722" y="1914.000">dev-disk-by\x2dpartlabel-flags_backup.device</text>
  <rect class="activating" x="790.723" y="1920.000" width="0.000" height="19.000" />
  <rect class="active" x="790.723" y="1920.000" width="744.100" height="19.000" />
  <rect class="deactivating" x="1534.823" y="1920.000" width="0.000" height="19.000" />
  <text class="left" x="795.723" y="1934.000">dev-disk-by\x2did-mmc\x2dSD16G_0x81f8913c\x2dpart8.device</text>
  <rect class="activating" x="790.724" y="1940.000" width="0.000" height="19.000" />
  <rect class="active" x="790.724" y="1940.000" width="744.099" height="19.000" />
  <rect class="deactivating" x="1534.823" y="1940.000" width="0.000" height="19.000" />
  <text class="left" x="795.724" y="1954.000">dev-mmcblk0p8.device</text>
  <rect class="activating" x="790.725" y="1960.000" width="0.000" height="19.000" />
  <rect class="active" x="790.725" y="1960.000" width="744.098" height="19.000" />
  <rect class="deactivating" x="1534.823" y="1960.000" width="0.000" height="19.000" />
  <text class="left" x="795.725" y="1974.000">sys-devices-soc.0-2100000.aips\x2dbus-2198000.usdhc-mmc_host-mmc0-mmc0:e624-block-mmcblk0-mmcblk0p8.device</text>
  <rect class="activating" x="793.606" y="1980.000" width="0.000" height="19.000" />
  <rect class="active" x="793.606" y="1980.000" width="741.217" height="19.000" />
  <rect class="deactivating" x="1534.823" y="1980.000" width="0.000" height="19.000" />
  <text class="left" x="798.606" y="1994.000">dev-disk-by\x2duuid-2656\x2d92B2.device</text>
  <rect class="activating" x="793.608" y="2000.000" width="0.000" height="19.000" />
  <rect class="active" x="793.608" y="2000.000" width="741.215" height="19.000" />
  <rect class="deactivating" x="1534.823" y="2000.000" width="0.000" height="19.000" />
  <text class="left" x="798.608" y="2014.000">dev-disk-by\x2dpath-platform\x2d2198000.usdhc\x2dpart2.device</text>
  <rect class="activating" x="793.610" y="2020.000" width="0.000" height="19.000" />
  <rect class="active" x="793.610" y="2020.000" width="741.214" height="19.000" />
  <rect class="deactivating" x="1534.823" y="2020.000" width="0.000" height="19.000" />
  <text class="left" x="798.610" y="2034.000">dev-disk-by\x2dpartuuid-fc758174\x2d52df\x2d45d3\x2db3d1\x2d5c91f8214a34.device</text>
  <rect class="activating" x="793.611" y="2040.000" width="0.000" height="19.000" />
  <rect class="active" x="793.611" y="2040.000" width="741.213" height="19.000" />
  <rect class="deactivating" x="1534.823" y="2040.000" width="0.000" height="19.000" />
  <text class="left" x="798.611" y="2054.000">dev-disk-by\x2dpartlabel-factory_reset.device</text>
  <rect class="activating" x="793.612" y="2060.000" width="0.000" height="19.000" />
  <rect class="active" x="793.612" y="2060.000" width="741.211" height="19.000" />
  <rect class="deactivating" x="1534.823" y="2060.000" width="0.000" height="19.000" />
  <text class="left" x="798.612" y="2074.000">dev-disk-by\x2dlabel-factory_res.device</text>
  <rect class="activating" x="793.613" y="2080.000" width="0.000" height="19.000" />
  <rect class="active" x="793.613" y="2080.000" width="741.210" height="19.000" />
  <rect class="deactivating" x="1534.823" y="2080.000" width="0.000" height="19.000" />
  <text class="left" x="798.613" y="2094.000">dev-disk-by\x2did-mmc\x2dSD16G_0x81f8913c\x2dpart2.device</text>
  <rect class="activating" x="793.614" y="2100.000" width="0.000" height="19.000" />
  <rect class="active" x="793.614" y="2100.000" width="741.209" height="19.000" />
  <rect class="deactivating" x="1534.823" y="2100.000" width="0.000" height="19.000" />
  <text class="left" x="798.614" y="2114.000">dev-mmcblk0p2.device</text>
  <rect class="activating" x="793.615" y="2120.000" width="0.000" height="19.000" />
  <rect class="active" x="793.615" y="2120.000" width="741.208" height="19.000" />
  <rect class="deactivating" x="1534.823" y="2120.000" width="0.000" height="19.000" />
  <text class="left" x="798.615" y="2134.000">sys-devices-soc.0-2100000.aips\x2dbus-2198000.usdhc-mmc_host-mmc0-mmc0:e624-block-mmcblk0-mmcblk0p2.device</text>
  <rect class="activating" x="796.481" y="2140.000" width="0.000" height="19.000" />
  <rect class="active" x="796.481" y="2140.000" width="738.342" height="19.000" />
  <rect class="deactivating" x="1534.823" y="2140.000" width="0.000" height="19.000" />
  <text class="left" x="801.481" y="2154.000">dev-disk-by\x2duuid-29e3544d\x2d7512\x2d4bf0\x2dbd32\x2da870d32945b3.device</text>
  <rect class="activating" x="796.816" y="2160.000" width="0.000" height="19.000" />
  <rect class="active" x="796.816" y="2160.000" width="738.008" height="19.000" />
  <rect class="deactivating" x="1534.823" y="2160.000" width="0.000" height="19.000" />
  <text class="left" x="801.816" y="2174.000">dev-disk-by\x2dpath-platform\x2d2198000.usdhc\x2dpart7.device</text>
  <rect class="activating" x="796.817" y="2180.000" width="0.000" height="19.000" />
  <rect class="active" x="796.817" y="2180.000" width="738.006" height="19.000" />
  <rect class="deactivating" x="1534.823" y="2180.000" width="0.000" height="19.000" />
  <text class="left" x="801.817" y="2194.000">dev-disk-by\x2dpartuuid-4c4d2c09\x2decbe\x2d4584\x2dad92\x2d0982641ccd57.device</text>
  <rect class="activating" x="796.818" y="2200.000" width="0.000" height="19.000" />
  <rect class="active" x="796.818" y="2200.000" width="738.005" height="19.000" />
  <rect class="deactivating" x="1534.823" y="2200.000" width="0.000" height="19.000" />
  <text class="left" x="801.818" y="2214.000">dev-disk-by\x2dpartlabel-general_storage.device</text>
  <rect class="activating" x="796.819" y="2220.000" width="0.000" height="19.000" />
  <rect class="active" x="796.819" y="2220.000" width="738.004" height="19.000" />
  <rect class="deactivating" x="1534.823" y="2220.000" width="0.000" height="19.000" />
  <text class="left" x="801.819" y="2234.000">dev-disk-by\x2dlabel-general_storage.device</text>
  <rect class="activating" x="796.821" y="2240.000" width="0.000" height="19.000" />
  <rect class="active" x="796.821" y="2240.000" width="738.003" height="19.000" />
  <rect class="deactivating" x="1534.823" y="2240.000" width="0.000" height="19.000" />
  <text class="left" x="801.821" y="2254.000">dev-disk-by\x2did-mmc\x2dSD16G_0x81f8913c\x2dpart7.device</text>
  <rect class="activating" x="796.822" y="2260.000" width="0.000" height="19.000" />
  <rect class="active" x="796.822" y="2260.000" width="738.002" height="19.000" />
  <rect class="deactivating" x="1534.823" y="2260.000" width="0.000" height="19.000" />
  <text class="left" x="801.822" y="2274.000">dev-mmcblk0p7.device</text>
  <rect class="activating" x="796.823" y="2280.000" width="0.000" height="19.000" />
  <rect class="active" x="796.823" y="2280.000" width="738.001" height="19.000" />
  <rect class="deactivating" x="1534.823" y="2280.000" width="0.000" height="19.000" />
  <text class="left" x="801.823" y="2294.000">sys-devices-soc.0-2100000.aips\x2dbus-2198000.usdhc-mmc_host-mmc0-mmc0:e624-block-mmcblk0-mmcblk0p7.device</text>
  <rect class="activating" x="800.175" y="2300.000" width="0.000" height="19.000" />
  <rect class="active" x="800.175" y="2300.000" width="734.649" height="19.000" />
  <rect class="deactivating" x="1534.823" y="2300.000" width="0.000" height="19.000" />
  <text class="left" x="805.175" y="2314.000">dev-disk-by\x2duuid-80a3ff4a\x2d405c\x2d4d71\x2db293\x2d279ada840657.device</text>
  <rect class="activating" x="800.177" y="2320.000" width="0.000" height="19.000" />
  <rect class="active" x="800.177" y="2320.000" width="734.646" height="19.000" />
  <rect class="deactivating" x="1534.823" y="2320.000" width="0.000" height="19.000" />
  <text class="left" x="805.177" y="2334.000">dev-disk-by\x2dpath-platform\x2d2198000.usdhc\x2dpart6.device</text>
  <rect class="activating" x="800.178" y="2340.000" width="0.000" height="19.000" />
  <rect class="active" x="800.178" y="2340.000" width="734.645" height="19.000" />
  <rect class="deactivating" x="1534.823" y="2340.000" width="0.000" height="19.000" />
  <text class="left" x="805.178" y="2354.000">dev-disk-by\x2dpartuuid-960c03e8\x2d8c76\x2d42c9\x2d9a1f\x2d45f0590a7c73.device</text>
  <rect class="activating" x="800.179" y="2360.000" width="0.000" height="19.000" />
  <rect class="active" x="800.179" y="2360.000" width="734.644" height="19.000" />
  <rect class="deactivating" x="1534.823" y="2360.000" width="0.000" height="19.000" />
  <text class="left" x="805.179" y="2374.000">dev-disk-by\x2dpartlabel-system.device</text>
  <rect class="activating" x="800.181" y="2380.000" width="0.000" height="19.000" />
  <rect class="active" x="800.181" y="2380.000" width="734.643" height="19.000" />
  <rect class="deactivating" x="1534.823" y="2380.000" width="0.000" height="19.000" />
  <text class="left" x="805.181" y="2394.000">dev-disk-by\x2dlabel-system.device</text>
  <rect class="activating" x="800.182" y="2400.000" width="0.000" height="19.000" />
  <rect class="active" x="800.182" y="2400.000" width="734.642" height="19.000" />
  <rect class="deactivating" x="1534.823" y="2400.000" width="0.000" height="19.000" />
  <text class="left" x="805.182" y="2414.000">dev-disk-by\x2did-mmc\x2dSD16G_0x81f8913c\x2dpart6.device</text>
  <rect class="activating" x="800.183" y="2420.000" width="0.000" height="19.000" />
  <rect class="active" x="800.183" y="2420.000" width="734.641" height="19.000" />
  <rect class="deactivating" x="1534.823" y="2420.000" width="0.000" height="19.000" />
  <text class="left" x="805.183" y="2434.000">dev-mmcblk0p6.device</text>
  <rect class="activating" x="800.184" y="2440.000" width="0.000" height="19.000" />
  <rect class="active" x="800.184" y="2440.000" width="734.640" height="19.000" />
  <rect class="deactivating" x="1534.823" y="2440.000" width="0.000" height="19.000" />
  <text class="left" x="805.184" y="2454.000">sys-devices-soc.0-2100000.aips\x2dbus-2198000.usdhc-mmc_host-mmc0-mmc0:e624-block-mmcblk0-mmcblk0p6.device</text>
  <rect class="activating" x="807.097" y="2460.000" width="17.995" height="19.000" />
  <rect class="active" x="825.093" y="2460.000" width="709.731" height="19.000" />
  <rect class="deactivating" x="1534.823" y="2460.000" width="0.000" height="19.000" />
  <text class="left" x="812.097" y="2474.000">systemd-random-seed.service (179ms)</text>
  <rect class="activating" x="818.099" y="2480.000" width="20.974" height="19.000" />
  <rect class="active" x="839.073" y="2480.000" width="695.751" height="19.000" />
  <rect class="deactivating" x="1534.823" y="2480.000" width="0.000" height="19.000" />
  <text class="left" x="823.099" y="2494.000">systemd-fsck@dev-disk-by\x2duuid-29e3544d\x2d7512\x2d4bf0\x2dbd32\x2da870d32945b3.service (209ms)</text>
  <rect class="activating" x="878.091" y="2500.000" width="12.159" height="19.000" />
  <rect class="active" x="890.250" y="2500.000" width="644.573" height="19.000" />
  <rect class="deactivating" x="1534.823" y="2500.000" width="0.000" height="19.000" />
  <text class="right" x="873.091" y="2514.000">Applications.mount (121ms)</text>
  <rect class="activating" x="881.056" y="2520.000" width="11.132" height="19.000" />
  <rect class="active" x="892.187" y="2520.000" width="642.636" height="19.000" />
  <rect class="deactivating" x="1534.823" y="2520.000" width="0.000" height="19.000" />
  <text class="right" x="876.056" y="2534.000">home.mount (111ms)</text>
  <rect class="activating" x="893.804" y="2540.000" width="0.000" height="19.000" />
  <rect class="active" x="893.804" y="2540.000" width="641.019" height="19.000" />
  <rect class="deactivating" x="1534.823" y="2540.000" width="0.000" height="19.000" />
  <text class="right" x="888.804" y="2554.000">sys-subsystem-net-devices-eth1.device</text>
  <rect class="activating" x="893.806" y="2560.000" width="0.000" height="19.000" />
  <rect class="active" x="893.806" y="2560.000" width="641.018" height="19.000" />
  <rect class="deactivating" x="1534.823" y="2560.000" width="0.000" height="19.000" />
  <text class="right" x="888.806" y="2574.000">sys-devices-soc.0-2100000.aips\x2dbus-2184200.usb-ci_hdrc.1-usb1-1\x2d1-1\x2d1.2-1\x2d1.2:1.0-net-eth1.device</text>
  <rect class="activating" x="908.076" y="2580.000" width="83.193" height="19.000" />
  <rect class="active" x="991.270" y="2580.000" width="0.000" height="19.000" />
  <rect class="deactivating" x="991.270" y="2580.000" width="0.000" height="19.000" />
  <text class="right" x="903.076" y="2594.000">plymouth-start.service (831ms)</text>
  <rect class="activating" x="908.114" y="2600.000" width="0.000" height="19.000" />
  <rect class="active" x="908.114" y="2600.000" width="626.709" height="19.000" />
  <rect class="deactivating" x="1534.823" y="2600.000" width="0.000" height="19.000" />
  <text class="right" x="903.114" y="2614.000">local-fs.target</text>
  <rect class="activating" x="918.100" y="2620.000" width="39.227" height="19.000" />
  <rect class="active" x="957.328" y="2620.000" width="577.496" height="19.000" />
  <rect class="deactivating" x="1534.823" y="2620.000" width="0.000" height="19.000" />
  <text class="right" x="913.100" y="2634.000">auditd.service (392ms)</text>
  <rect class="activating" x="928.638" y="2640.000" width="97.417" height="19.000" />
  <rect class="active" x="1026.055" y="2640.000" width="508.769" height="19.000" />
  <rect class="deactivating" x="1534.823" y="2640.000" width="0.000" height="19.000" />
  <text class="right" x="923.638" y="2654.000">networking.service (974ms)</text>
  <rect class="activating" x="935.089" y="2660.000" width="46.033" height="19.000" />
  <rect class="active" x="981.122" y="2660.000" width="553.702" height="19.000" />
  <rect class="deactivating" x="1534.823" y="2660.000" width="0.000" height="19.000" />
  <text class="right" x="930.089" y="2674.000">apparmor.service (460ms)</text>
  <rect class="activating" x="944.176" y="2680.000" width="18.326" height="19.000" />
  <rect class="active" x="962.501" y="2680.000" width="0.000" height="19.000" />
  <rect class="deactivating" x="962.501" y="2680.000" width="0.000" height="19.000" />
  <text class="right" x="939.176" y="2694.000">plymouth-read-write.service (183ms)</text>
  <rect class="activating" x="951.115" y="2700.000" width="6.951" height="19.000" />
  <rect class="active" x="958.066" y="2700.000" width="576.758" height="19.000" />
  <rect class="deactivating" x="1534.823" y="2700.000" width="0.000" height="19.000" />
  <text class="right" x="946.115" y="2714.000">systemd-tmpfiles-setup.service (69ms)</text>
  <rect class="activating" x="1007.775" y="2720.000" width="0.000" height="19.000" />
  <rect class="active" x="1007.775" y="2720.000" width="527.048" height="19.000" />
  <rect class="deactivating" x="1534.823" y="2720.000" width="0.000" height="19.000" />
  <text class="right" x="1002.775" y="2734.000">paths.target</text>
  <rect class="activating" x="1007.947" y="2740.000" width="0.000" height="19.000" />
  <rect class="active" x="1007.947" y="2740.000" width="526.876" height="19.000" />
  <rect class="deactivating" x="1534.823" y="2740.000" width="0.000" height="19.000" />
  <text class="right" x="1002.947" y="2754.000">systemd-ask-password-plymouth.path</text>
  <rect class="activating" x="1011.097" y="2760.000" width="6.967" height="19.000" />
  <rect class="active" x="1018.064" y="2760.000" width="516.760" height="19.000" />
  <rect class="deactivating" x="1534.823" y="2760.000" width="0.000" height="19.000" />
  <text class="right" x="1006.097" y="2774.000">systemd-update-utmp.service (69ms)</text>
  <rect class="activating" x="1026.829" y="2780.000" width="0.000" height="19.000" />
  <rect class="active" x="1026.829" y="2780.000" width="507.995" height="19.000" />
  <rect class="deactivating" x="1534.823" y="2780.000" width="0.000" height="19.000" />
  <text class="right" x="1021.829" y="2794.000">sysinit.target</text>
  <rect class="activating" x="1026.931" y="2800.000" width="0.000" height="19.000" />
  <rect class="active" x="1026.931" y="2800.000" width="507.893" height="19.000" />
  <rect class="deactivating" x="1534.823" y="2800.000" width="0.000" height="19.000" />
  <text class="right" x="1021.931" y="2814.000">avahi-daemon.socket</text>
  <rect class="activating" x="1027.013" y="2820.000" width="0.000" height="19.000" />
  <rect class="active" x="1027.013" y="2820.000" width="507.810" height="19.000" />
  <rect class="deactivating" x="1534.823" y="2820.000" width="0.000" height="19.000" />
  <text class="right" x="1022.013" y="2834.000">uuidd.socket</text>
  <rect class="activating" x="1027.114" y="2840.000" width="0.000" height="19.000" />
  <rect class="active" x="1027.114" y="2840.000" width="507.709" height="19.000" />
  <rect class="deactivating" x="1534.823" y="2840.000" width="0.000" height="19.000" />
  <text class="right" x="1022.114" y="2854.000">dbus.socket</text>
  <rect class="activating" x="1027.192" y="2860.000" width="0.000" height="19.000" />
  <rect class="active" x="1027.192" y="2860.000" width="507.631" height="19.000" />
  <rect class="deactivating" x="1534.823" y="2860.000" width="0.000" height="19.000" />
  <text class="right" x="1022.192" y="2874.000">sockets.target</text>
  <rect class="activating" x="1027.274" y="2880.000" width="0.000" height="19.000" />
  <rect class="active" x="1027.274" y="2880.000" width="507.550" height="19.000" />
  <rect class="deactivating" x="1534.823" y="2880.000" width="0.000" height="19.000" />
  <text class="right" x="1022.274" y="2894.000">systemd-tmpfiles-clean.timer</text>
  <rect class="activating" x="1027.293" y="2900.000" width="0.000" height="19.000" />
  <rect class="active" x="1027.293" y="2900.000" width="507.530" height="19.000" />
  <rect class="deactivating" x="1534.823" y="2900.000" width="0.000" height="19.000" />
  <text class="right" x="1022.293" y="2914.000">timers.target</text>
  <rect class="activating" x="1027.366" y="2920.000" width="0.000" height="19.000" />
  <rect class="active" x="1027.366" y="2920.000" width="507.457" height="19.000" />
  <rect class="deactivating" x="1534.823" y="2920.000" width="0.000" height="19.000" />
  <text class="right" x="1022.366" y="2934.000">basic.target</text>
  <rect class="activating" x="1034.108" y="2940.000" width="0.000" height="19.000" />
  <rect class="active" x="1034.108" y="2940.000" width="500.715" height="19.000" />
  <rect class="deactivating" x="1534.823" y="2940.000" width="0.000" height="19.000" />
  <text class="right" x="1029.108" y="2954.000">ifup@eth1.service</text>
  <rect class="activating" x="1039.109" y="2960.000" width="0.000" height="19.000" />
  <rect class="active" x="1039.109" y="2960.000" width="495.715" height="19.000" />
  <rect class="deactivating" x="1534.823" y="2960.000" width="0.000" height="19.000" />
  <text class="right" x="1034.109" y="2974.000">ifup@eth0.service</text>
  <rect class="activating" x="1042.106" y="2980.000" width="0.000" height="19.000" />
  <rect class="active" x="1042.106" y="2980.000" width="492.717" height="19.000" />
  <rect class="deactivating" x="1534.823" y="2980.000" width="0.000" height="19.000" />
  <text class="right" x="1037.106" y="2994.000">ifup@ifb1.service</text>
  <rect class="activating" x="1047.150" y="3000.000" width="0.000" height="19.000" />
  <rect class="active" x="1047.150" y="3000.000" width="487.673" height="19.000" />
  <rect class="deactivating" x="1534.823" y="3000.000" width="0.000" height="19.000" />
  <text class="right" x="1042.150" y="3014.000">ifup@ifb0.service</text>
  <rect class="activating" x="1052.098" y="3020.000" width="0.000" height="19.000" />
  <rect class="active" x="1052.098" y="3020.000" width="482.726" height="19.000" />
  <rect class="deactivating" x="1534.823" y="3020.000" width="0.000" height="19.000" />
  <text class="right" x="1047.098" y="3034.000">ifup@sit0.service</text>
  <rect class="activating" x="1056.070" y="3040.000" width="128.987" height="19.000" />
  <rect class="active" x="1185.056" y="3040.000" width="349.767" height="19.000" />
  <rect class="deactivating" x="1534.823" y="3040.000" width="0.000" height="19.000" />
  <text class="right" x="1051.070" y="3054.000">motd.service (1.289s)</text>
  <rect class="activating" x="1064.069" y="3060.000" width="121.473" height="19.000" />
  <rect class="active" x="1185.543" y="3060.000" width="349.281" height="19.000" />
  <rect class="deactivating" x="1534.823" y="3060.000" width="0.000" height="19.000" />
  <text class="right" x="1059.069" y="3074.000">bootlogs.service (1.214s)</text>
  <rect class="activating" x="1070.108" y="3080.000" width="68.296" height="19.000" />
  <rect class="active" x="1138.404" y="3080.000" width="396.419" height="19.000" />
  <rect class="deactivating" x="1534.823" y="3080.000" width="0.000" height="19.000" />
  <text class="right" x="1065.108" y="3094.000">avahi-daemon.service (682ms)</text>
  <rect class="activating" x="1076.084" y="3100.000" width="124.558" height="19.000" />
  <rect class="active" x="1200.642" y="3100.000" width="334.181" height="19.000" />
  <rect class="deactivating" x="1534.823" y="3100.000" width="0.000" height="19.000" />
  <text class="right" x="1071.084" y="3114.000">connman.service (1.245s)</text>
  <rect class="activating" x="1082.081" y="3120.000" width="56.508" height="19.000" />
  <rect class="active" x="1138.589" y="3120.000" width="396.234" height="19.000" />
  <rect class="deactivating" x="1534.823" y="3120.000" width="0.000" height="19.000" />
  <text class="right" x="1077.081" y="3134.000">ofono.service (565ms)</text>
  <rect class="activating" x="1088.117" y="3140.000" width="0.000" height="19.000" />
  <rect class="active" x="1088.117" y="3140.000" width="446.707" height="19.000" />
  <rect class="deactivating" x="1534.823" y="3140.000" width="0.000" height="19.000" />
  <text class="right" x="1083.117" y="3154.000">dbus.service</text>
  <rect class="activating" x="1144.098" y="3160.000" width="30.887" height="19.000" />
  <rect class="active" x="1174.985" y="3160.000" width="359.839" height="19.000" />
  <rect class="deactivating" x="1534.823" y="3160.000" width="0.000" height="19.000" />
  <text class="right" x="1139.098" y="3174.000">systemd-networkd.service (308ms)</text>
  <rect class="activating" x="1150.125" y="3180.000" width="0.000" height="19.000" />
  <rect class="active" x="1150.125" y="3180.000" width="881.417" height="19.000" />
  <rect class="deactivating" x="2031.542" y="3180.000" width="1844674407370458.500" height="19.000" />
  <text class="right" x="1145.125" y="3194.000">shapwick.service</text>
  <rect class="activating" x="1156.088" y="3200.000" width="261.326" height="19.000" />
  <rect class="active" x="1417.413" y="3200.000" width="117.410" height="19.000" />
  <rect class="deactivating" x="1534.823" y="3200.000" width="0.000" height="19.000" />
  <text class="right" x="1151.088" y="3214.000">ribchester.service (2.613s)</text>
  <rect class="activating" x="1163.088" y="3220.000" width="12.095" height="19.000" />
  <rect class="active" x="1175.183" y="3220.000" width="359.641" height="19.000" />
  <rect class="deactivating" x="1534.823" y="3220.000" width="0.000" height="19.000" />
  <text class="right" x="1158.088" y="3234.000">chaiwala-rollbackd.service (120ms)</text>
  <rect class="activating" x="1166.233" y="3240.000" width="34.949" height="19.000" />
  <rect class="active" x="1201.182" y="3240.000" width="333.642" height="19.000" />
  <rect class="deactivating" x="1534.823" y="3240.000" width="0.000" height="19.000" />
  <text class="right" x="1161.233" y="3254.000">systemd-logind.service (349ms)</text>
  <rect class="activating" x="1173.075" y="3260.000" width="253.950" height="19.000" />
  <rect class="active" x="1427.025" y="3260.000" width="107.798" height="19.000" />
  <rect class="deactivating" x="1534.823" y="3260.000" width="0.000" height="19.000" />
  <text class="right" x="1168.075" y="3274.000">iptables.service (2.539s)</text>
  <rect class="activating" x="1203.389" y="3280.000" width="0.000" height="19.000" />
  <rect class="active" x="1203.389" y="3280.000" width="331.435" height="19.000" />
  <rect class="deactivating" x="1534.823" y="3280.000" width="0.000" height="19.000" />
  <text class="right" x="1198.389" y="3294.000">remote-fs.target</text>
  <rect class="activating" x="1209.566" y="3300.000" width="9.053" height="19.000" />
  <rect class="active" x="1218.620" y="3300.000" width="0.000" height="19.000" />
  <rect class="deactivating" x="1218.620" y="3300.000" width="0.000" height="19.000" />
  <text class="right" x="1204.566" y="3314.000">systemd-journal-flush.service (90ms)</text>
  <rect class="activating" x="1209.600" y="3320.000" width="0.000" height="19.000" />
  <rect class="active" x="1209.600" y="3320.000" width="325.224" height="19.000" />
  <rect class="deactivating" x="1534.823" y="3320.000" width="0.000" height="19.000" />
  <text class="right" x="1204.600" y="3334.000">network.target</text>
  <rect class="activating" x="1209.695" y="3340.000" width="0.000" height="19.000" />
  <rect class="active" x="1209.695" y="3340.000" width="325.129" height="19.000" />
  <rect class="deactivating" x="1534.823" y="3340.000" width="0.000" height="19.000" />
  <text class="right" x="1204.695" y="3354.000">nss-lookup.target</text>
  <rect class="activating" x="1215.139" y="3360.000" width="10.186" height="19.000" />
  <rect class="active" x="1225.325" y="3360.000" width="309.499" height="19.000" />
  <rect class="deactivating" x="1534.823" y="3360.000" width="0.000" height="19.000" />
  <text class="right" x="1210.139" y="3374.000">systemd-resolved.service (101ms)</text>
  <rect class="activating" x="1368.090" y="3380.000" width="68.092" height="19.000" />
  <rect class="active" x="1436.182" y="3380.000" width="98.642" height="19.000" />
  <rect class="deactivating" x="1534.823" y="3380.000" width="0.000" height="19.000" />
  <text class="right" x="1363.090" y="3394.000">systemd-hostnamed.service (680ms)</text>
  <rect class="activating" x="1374.949" y="3400.000" width="58.084" height="19.000" />
  <rect class="active" x="1433.033" y="3400.000" width="101.791" height="19.000" />
  <rect class="deactivating" x="1534.823" y="3400.000" width="0.000" height="19.000" />
  <text class="right" x="1369.949" y="3414.000">systemd-user-sessions.service (580ms)</text>
  <rect class="activating" x="1442.109" y="3420.000" width="25.552" height="19.000" />
  <rect class="active" x="1467.661" y="3420.000" width="0.000" height="19.000" />
  <rect class="deactivating" x="1467.661" y="3420.000" width="0.000" height="19.000" />
  <text class="right" x="1437.109" y="3434.000">plymouth-quit.service (255ms)</text>
  <rect class="activating" x="1453.089" y="3440.000" width="19.347" height="19.000" />
  <rect class="active" x="1472.436" y="3440.000" width="0.000" height="19.000" />
  <rect class="deactivating" x="1472.436" y="3440.000" width="0.000" height="19.000" />
  <text class="right" x="1448.089" y="3454.000">plymouth-quit-wait.service (193ms)</text>
  <rect class="activating" x="1462.069" y="3460.000" width="20.024" height="19.000" />
  <rect class="active" x="1482.093" y="3460.000" width="52.730" height="19.000" />
  <rect class="deactivating" x="1534.823" y="3460.000" width="0.000" height="19.000" />
  <text class="right" x="1457.069" y="3474.000">chaiwala-user@seat0-1000.service (200ms)</text>
  <rect class="activating" x="1492.093" y="3480.000" width="0.000" height="19.000" />
  <rect class="active" x="1492.093" y="3480.000" width="42.731" height="19.000" />
  <rect class="deactivating" x="1534.823" y="3480.000" width="0.000" height="19.000" />
  <text class="right" x="1487.093" y="3494.000">getty@tty1.service</text>
  <rect class="activating" x="1494.977" y="3500.000" width="0.000" height="19.000" />
  <rect class="active" x="1494.977" y="3500.000" width="39.846" height="19.000" />
  <rect class="deactivating" x="1534.823" y="3500.000" width="0.000" height="19.000" />
  <text class="right" x="1489.977" y="3514.000">serial-getty@ttymxc1.service</text>
  <rect class="activating" x="1495.135" y="3520.000" width="0.000" height="19.000" />
  <rect class="active" x="1495.135" y="3520.000" width="39.688" height="19.000" />
  <rect class="deactivating" x="1534.823" y="3520.000" width="0.000" height="19.000" />
  <text class="right" x="1490.135" y="3534.000">getty.target</text>
  <rect class="activating" x="1495.177" y="3540.000" width="0.000" height="19.000" />
  <rect class="active" x="1495.177" y="3540.000" width="39.647" height="19.000" />
  <rect class="deactivating" x="1534.823" y="3540.000" width="0.000" height="19.000" />
  <text class="right" x="1490.177" y="3554.000">multi-user.target</text>
  <rect class="activating" x="1495.209" y="3560.000" width="0.000" height="19.000" />
  <rect class="active" x="1495.209" y="3560.000" width="39.614" height="19.000" />
  <rect class="deactivating" x="1534.823" y="3560.000" width="0.000" height="19.000" />
  <text class="right" x="1490.209" y="3574.000">graphical.target</text>
  <rect class="activating" x="1497.315" y="3580.000" width="26.942" height="19.000" />
  <rect class="active" x="1524.256" y="3580.000" width="0.000" height="19.000" />
  <rect class="deactivating" x="1524.256" y="3580.000" width="0.000" height="19.000" />
  <text class="right" x="1492.315" y="3594.000">systemd-update-utmp-runlevel.service (269ms)</text>
  <rect class="activating" x="1500.737" y="3600.000" width="0.000" height="19.000" />
  <rect class="active" x="1500.737" y="3600.000" width="34.087" height="19.000" />
  <rect class="deactivating" x="1534.823" y="3600.000" width="0.000" height="19.000" />
  <text class="right" x="1495.737" y="3614.000">run-user-1000.mount</text>
  <rect class="activating" x="1502.104" y="3620.000" width="0.000" height="19.000" />
  <rect class="active" x="1502.104" y="3620.000" width="32.719" height="19.000" />
  <rect class="deactivating" x="1534.823" y="3620.000" width="0.000" height="19.000" />
  <text class="right" x="1497.104" y="3634.000">user-1000.slice</text>
  <rect class="activating" x="1512.264" y="3640.000" width="0.000" height="19.000" />
  <rect class="active" x="1512.264" y="3640.000" width="22.560" height="19.000" />
  <rect class="deactivating" x="1534.823" y="3640.000" width="0.000" height="19.000" />
  <text class="right" x="1507.264" y="3654.000">session-c1.scope</text>
  <rect class="activating" x="1520.071" y="3660.000" width="14.216" height="19.000" />
  <rect class="active" x="1534.287" y="3660.000" width="0.536" height="19.000" />
  <rect class="deactivating" x="1534.823" y="3660.000" width="0.000" height="19.000" />
  <text class="right" x="1515.071" y="3674.000">user@1000.service (142ms)</text>
</g>
<g transform="translate(20,100)">
  <rect class="activating" x="0.000" y="3700.000" width="30.000" height="19.000" />
  <text class="left" x="45.000" y="3714.000">Activating</text>
  <rect class="active" x="0.000" y="3720.000" width="30.000" height="19.000" />
  <text class="left" x="45.000" y="3734.000">Active</text>
  <rect class="deactivating" x="0.000" y="3740.000" width="30.000" height="19.000" />
  <text class="left" x="45.000" y="3754.000">Deactivating</text>
  <rect class="security" x="0.000" y="3760.000" width="30.000" height="19.000" />
  <text class="left" x="45.000" y="3774.000">Setting up security module</text>
  <rect class="generators" x="0.000" y="3780.000" width="30.000" height="19.000" />
  <text class="left" x="45.000" y="3794.000">Generators</text>
  <rect class="unitsload" x="0.000" y="3800.000" width="30.000" height="19.000" />
  <text class="left" x="45.000" y="3814.000">Loading unit files</text>
</g>

</svg>
